<?xml version="1.0" encoding="utf-8"?>
<kml xmlns="http://www.opengis.net/kml/2.2">
<Document>
<name>21/487928/1231370.kml</name>
<description></description>
<Style><ListStyle id="hideChildren">
<listItemType>checkHideChildren</listItemType>
</ListStyle>
</Style>
<Folder>
<Region>
<LatLonAltBox>
<north>29.918488882277597</north>
<south>29.918340097097651</south>
<east>-96.241436004638672</east>
<west>-96.241607666015625</west>
</LatLonAltBox>
<Lod>
<minLodPixels>128</minLodPixels>
<maxLodPixels>-1</maxLodPixels>
</Lod>
</Region>
<GroundOverlay>
<drawOrder>42</drawOrder>
<Icon>
<href>../../21/487928/1231370.png</href>
</Icon>
<LatLonBox>
<north>29.918488882277597</north>
<south>29.918340097097651</south>
<east>-96.241436004638672</east>
<west>-96.241607666015625</west>
</LatLonBox>
</GroundOverlay>
<NetworkLink>
<name>22/975856/2462740.kml</name>
<Region>
<LatLonAltBox>
<north>29.918414489715410</north>
<south>29.918340097097651</south>
<east>-96.241521835327148</east>
<west>-96.241607666015625</west>
</LatLonAltBox>
<Lod>
<minLodPixels>128</minLodPixels>
<maxLodPixels>-1</maxLodPixels>
</Lod>
</Region>
<Link>
<href>../../22/975856/2462740.kml</href>
<viewRefreshMode>onRegion</viewRefreshMode>
</Link>
</NetworkLink>
<NetworkLink>
<name>22/975857/2462740.kml</name>
<Region>
<LatLonAltBox>
<north>29.918414489715410</north>
<south>29.918340097097651</south>
<east>-96.241436004638672</east>
<west>-96.241521835327148</west>
</LatLonAltBox>
<Lod>
<minLodPixels>128</minLodPixels>
<maxLodPixels>-1</maxLodPixels>
</Lod>
</Region>
<Link>
<href>../../22/975857/2462740.kml</href>
<viewRefreshMode>onRegion</viewRefreshMode>
</Link>
</NetworkLink>
<NetworkLink>
<name>22/975856/2462741.kml</name>
<Region>
<LatLonAltBox>
<north>29.918488882277597</north>
<south>29.918414489715410</south>
<east>-96.241521835327148</east>
<west>-96.241607666015625</west>
</LatLonAltBox>
<Lod>
<minLodPixels>128</minLodPixels>
<maxLodPixels>-1</maxLodPixels>
</Lod>
</Region>
<Link>
<href>../../22/975856/2462741.kml</href>
<viewRefreshMode>onRegion</viewRefreshMode>
</Link>
</NetworkLink>
<NetworkLink>
<name>22/975857/2462741.kml</name>
<Region>
<LatLonAltBox>
<north>29.918488882277597</north>
<south>29.918414489715410</south>
<east>-96.241436004638672</east>
<west>-96.241521835327148</west>
</LatLonAltBox>
<Lod>
<minLodPixels>128</minLodPixels>
<maxLodPixels>-1</maxLodPixels>
</Lod>
</Region>
<Link>
<href>../../22/975857/2462741.kml</href>
<viewRefreshMode>onRegion</viewRefreshMode>
</Link>
</NetworkLink>

</Folder>

</Document>
</kml>
