<?xml version="1.0" encoding="utf-8"?>
<kml xmlns="http://www.opengis.net/kml/2.2">
<Document>
<name>21/487910/1231365.kml</name>
<description></description>
<Style><ListStyle id="hideChildren">
<listItemType>checkHideChildren</listItemType>
</ListStyle>
</Style>
<Folder>
<Region>
<LatLonAltBox>
<north>29.917744954154632</north>
<south>29.917596167863042</south>
<east>-96.244525909423828</east>
<west>-96.244697570800781</west>
</LatLonAltBox>
<Lod>
<minLodPixels>128</minLodPixels>
<maxLodPixels>-1</maxLodPixels>
</Lod>
</Region>
<GroundOverlay>
<drawOrder>42</drawOrder>
<Icon>
<href>../../21/487910/1231365.png</href>
</Icon>
<LatLonBox>
<north>29.917744954154632</north>
<south>29.917596167863042</south>
<east>-96.244525909423828</east>
<west>-96.244697570800781</west>
</LatLonBox>
</GroundOverlay>
<NetworkLink>
<name>22/975820/2462730.kml</name>
<Region>
<LatLonAltBox>
<north>29.917670561036633</north>
<south>29.917596167863042</south>
<east>-96.244611740112305</east>
<west>-96.244697570800781</west>
</LatLonAltBox>
<Lod>
<minLodPixels>128</minLodPixels>
<maxLodPixels>-1</maxLodPixels>
</Lod>
</Region>
<Link>
<href>../../22/975820/2462730.kml</href>
<viewRefreshMode>onRegion</viewRefreshMode>
</Link>
</NetworkLink>
<NetworkLink>
<name>22/975821/2462730.kml</name>
<Region>
<LatLonAltBox>
<north>29.917670561036633</north>
<south>29.917596167863042</south>
<east>-96.244525909423828</east>
<west>-96.244611740112305</west>
</LatLonAltBox>
<Lod>
<minLodPixels>128</minLodPixels>
<maxLodPixels>-1</maxLodPixels>
</Lod>
</Region>
<Link>
<href>../../22/975821/2462730.kml</href>
<viewRefreshMode>onRegion</viewRefreshMode>
</Link>
</NetworkLink>
<NetworkLink>
<name>22/975820/2462731.kml</name>
<Region>
<LatLonAltBox>
<north>29.917744954154632</north>
<south>29.917670561036633</south>
<east>-96.244611740112305</east>
<west>-96.244697570800781</west>
</LatLonAltBox>
<Lod>
<minLodPixels>128</minLodPixels>
<maxLodPixels>-1</maxLodPixels>
</Lod>
</Region>
<Link>
<href>../../22/975820/2462731.kml</href>
<viewRefreshMode>onRegion</viewRefreshMode>
</Link>
</NetworkLink>
<NetworkLink>
<name>22/975821/2462731.kml</name>
<Region>
<LatLonAltBox>
<north>29.917744954154632</north>
<south>29.917670561036633</south>
<east>-96.244525909423828</east>
<west>-96.244611740112305</west>
</LatLonAltBox>
<Lod>
<minLodPixels>128</minLodPixels>
<maxLodPixels>-1</maxLodPixels>
</Lod>
</Region>
<Link>
<href>../../22/975821/2462731.kml</href>
<viewRefreshMode>onRegion</viewRefreshMode>
</Link>
</NetworkLink>

</Folder>

</Document>
</kml>
