<?xml version="1.0" encoding="utf-8"?>
<kml xmlns="http://www.opengis.net/kml/2.2">
<Document>
<name>21/487907/1231362.kml</name>
<description></description>
<Style><ListStyle id="hideChildren">
<listItemType>checkHideChildren</listItemType>
</ListStyle>
</Style>
<Folder>
<Region>
<LatLonAltBox>
<north>29.917298594612891</north>
<south>29.917149807654301</south>
<east>-96.245040893554688</east>
<west>-96.245212554931641</west>
</LatLonAltBox>
<Lod>
<minLodPixels>128</minLodPixels>
<maxLodPixels>-1</maxLodPixels>
</Lod>
</Region>
<GroundOverlay>
<drawOrder>42</drawOrder>
<Icon>
<href>../../21/487907/1231362.png</href>
</Icon>
<LatLonBox>
<north>29.917298594612891</north>
<south>29.917149807654301</south>
<east>-96.245040893554688</east>
<west>-96.245212554931641</west>
</LatLonBox>
</GroundOverlay>
<NetworkLink>
<name>22/975814/2462725.kml</name>
<Region>
<LatLonAltBox>
<north>29.917298594612891</north>
<south>29.917224201161392</south>
<east>-96.245126724243164</east>
<west>-96.245212554931641</west>
</LatLonAltBox>
<Lod>
<minLodPixels>128</minLodPixels>
<maxLodPixels>-1</maxLodPixels>
</Lod>
</Region>
<Link>
<href>../../22/975814/2462725.kml</href>
<viewRefreshMode>onRegion</viewRefreshMode>
</Link>
</NetworkLink>
<NetworkLink>
<name>22/975815/2462725.kml</name>
<Region>
<LatLonAltBox>
<north>29.917298594612891</north>
<south>29.917224201161392</south>
<east>-96.245040893554688</east>
<west>-96.245126724243164</west>
</LatLonAltBox>
<Lod>
<minLodPixels>128</minLodPixels>
<maxLodPixels>-1</maxLodPixels>
</Lod>
</Region>
<Link>
<href>../../22/975815/2462725.kml</href>
<viewRefreshMode>onRegion</viewRefreshMode>
</Link>
</NetworkLink>

</Folder>

</Document>
</kml>
