<?xml version="1.0" encoding="utf-8"?>
<kml xmlns="http://www.opengis.net/kml/2.2">
<Document>
<name>20/243970/615688.kml</name>
<description></description>
<Style><ListStyle id="hideChildren">
<listItemType>checkHideChildren</listItemType>
</ListStyle>
</Style>
<Folder>
<Region>
<LatLonAltBox>
<north>29.919530372311630</north>
<south>29.919232804842174</south>
<east>-96.239204406738281</east>
<west>-96.239547729492188</west>
</LatLonAltBox>
<Lod>
<minLodPixels>128</minLodPixels>
<maxLodPixels>-1</maxLodPixels>
</Lod>
</Region>
<GroundOverlay>
<drawOrder>40</drawOrder>
<Icon>
<href>../../20/243970/615688.png</href>
</Icon>
<LatLonBox>
<north>29.919530372311630</north>
<south>29.919232804842174</south>
<east>-96.239204406738281</east>
<west>-96.239547729492188</west>
</LatLonBox>
</GroundOverlay>
<NetworkLink>
<name>21/487940/1231376.kml</name>
<Region>
<LatLonAltBox>
<north>29.919381588688044</north>
<south>29.919232804842174</south>
<east>-96.239376068115234</east>
<west>-96.239547729492188</west>
</LatLonAltBox>
<Lod>
<minLodPixels>128</minLodPixels>
<maxLodPixels>-1</maxLodPixels>
</Lod>
</Region>
<Link>
<href>../../21/487940/1231376.kml</href>
<viewRefreshMode>onRegion</viewRefreshMode>
</Link>
</NetworkLink>
<NetworkLink>
<name>21/487941/1231376.kml</name>
<Region>
<LatLonAltBox>
<north>29.919381588688044</north>
<south>29.919232804842174</south>
<east>-96.239204406738281</east>
<west>-96.239376068115234</west>
</LatLonAltBox>
<Lod>
<minLodPixels>128</minLodPixels>
<maxLodPixels>-1</maxLodPixels>
</Lod>
</Region>
<Link>
<href>../../21/487941/1231376.kml</href>
<viewRefreshMode>onRegion</viewRefreshMode>
</Link>
</NetworkLink>
<NetworkLink>
<name>21/487940/1231377.kml</name>
<Region>
<LatLonAltBox>
<north>29.919530372311630</north>
<south>29.919381588688044</south>
<east>-96.239376068115234</east>
<west>-96.239547729492188</west>
</LatLonAltBox>
<Lod>
<minLodPixels>128</minLodPixels>
<maxLodPixels>-1</maxLodPixels>
</Lod>
</Region>
<Link>
<href>../../21/487940/1231377.kml</href>
<viewRefreshMode>onRegion</viewRefreshMode>
</Link>
</NetworkLink>
<NetworkLink>
<name>21/487941/1231377.kml</name>
<Region>
<LatLonAltBox>
<north>29.919530372311630</north>
<south>29.919381588688044</south>
<east>-96.239204406738281</east>
<west>-96.239376068115234</west>
</LatLonAltBox>
<Lod>
<minLodPixels>128</minLodPixels>
<maxLodPixels>-1</maxLodPixels>
</Lod>
</Region>
<Link>
<href>../../21/487941/1231377.kml</href>
<viewRefreshMode>onRegion</viewRefreshMode>
</Link>
</NetworkLink>

</Folder>

</Document>
</kml>
