<?xml version="1.0" encoding="utf-8"?>
<kml xmlns="http://www.opengis.net/kml/2.2">
<Document>
<name>22/975864/2462771.kml</name>
<description></description>
<Style><ListStyle id="hideChildren">
<listItemType>checkHideChildren</listItemType>
</ListStyle>
</Style>
<Folder>
<Region>
<LatLonAltBox>
<north>29.920720633295858</north>
<south>29.920646242401247</south>
<east>-96.240835189819336</east>
<west>-96.240921020507812</west>
</LatLonAltBox>
<Lod>
<minLodPixels>128</minLodPixels>
<maxLodPixels>-1</maxLodPixels>
</Lod>
</Region>
<GroundOverlay>
<drawOrder>44</drawOrder>
<Icon>
<href>../../22/975864/2462771.png</href>
</Icon>
<LatLonBox>
<north>29.920720633295858</north>
<south>29.920646242401247</south>
<east>-96.240835189819336</east>
<west>-96.240921020507812</west>
</LatLonBox>
</GroundOverlay>

</Folder>

</Document>
</kml>
