<?xml version="1.0" encoding="utf-8"?>
<kml xmlns="http://www.opengis.net/kml/2.2">
<Document>
<name>20/243964/615685.kml</name>
<description></description>
<Style><ListStyle id="hideChildren">
<listItemType>checkHideChildren</listItemType>
</ListStyle>
</Style>
<Folder>
<Region>
<LatLonAltBox>
<north>29.918637667235185</north>
<south>29.918340097097651</south>
<east>-96.241264343261719</east>
<west>-96.241607666015625</west>
</LatLonAltBox>
<Lod>
<minLodPixels>128</minLodPixels>
<maxLodPixels>-1</maxLodPixels>
</Lod>
</Region>
<GroundOverlay>
<drawOrder>40</drawOrder>
<Icon>
<href>../../20/243964/615685.png</href>
</Icon>
<LatLonBox>
<north>29.918637667235185</north>
<south>29.918340097097651</south>
<east>-96.241264343261719</east>
<west>-96.241607666015625</west>
</LatLonBox>
</GroundOverlay>
<NetworkLink>
<name>21/487928/1231370.kml</name>
<Region>
<LatLonAltBox>
<north>29.918488882277597</north>
<south>29.918340097097651</south>
<east>-96.241436004638672</east>
<west>-96.241607666015625</west>
</LatLonAltBox>
<Lod>
<minLodPixels>128</minLodPixels>
<maxLodPixels>-1</maxLodPixels>
</Lod>
</Region>
<Link>
<href>../../21/487928/1231370.kml</href>
<viewRefreshMode>onRegion</viewRefreshMode>
</Link>
</NetworkLink>
<NetworkLink>
<name>21/487929/1231370.kml</name>
<Region>
<LatLonAltBox>
<north>29.918488882277597</north>
<south>29.918340097097651</south>
<east>-96.241264343261719</east>
<west>-96.241436004638672</west>
</LatLonAltBox>
<Lod>
<minLodPixels>128</minLodPixels>
<maxLodPixels>-1</maxLodPixels>
</Lod>
</Region>
<Link>
<href>../../21/487929/1231370.kml</href>
<viewRefreshMode>onRegion</viewRefreshMode>
</Link>
</NetworkLink>
<NetworkLink>
<name>21/487928/1231371.kml</name>
<Region>
<LatLonAltBox>
<north>29.918637667235185</north>
<south>29.918488882277597</south>
<east>-96.241436004638672</east>
<west>-96.241607666015625</west>
</LatLonAltBox>
<Lod>
<minLodPixels>128</minLodPixels>
<maxLodPixels>-1</maxLodPixels>
</Lod>
</Region>
<Link>
<href>../../21/487928/1231371.kml</href>
<viewRefreshMode>onRegion</viewRefreshMode>
</Link>
</NetworkLink>
<NetworkLink>
<name>21/487929/1231371.kml</name>
<Region>
<LatLonAltBox>
<north>29.918637667235185</north>
<south>29.918488882277597</south>
<east>-96.241264343261719</east>
<west>-96.241436004638672</west>
</LatLonAltBox>
<Lod>
<minLodPixels>128</minLodPixels>
<maxLodPixels>-1</maxLodPixels>
</Lod>
</Region>
<Link>
<href>../../21/487929/1231371.kml</href>
<viewRefreshMode>onRegion</viewRefreshMode>
</Link>
</NetworkLink>

</Folder>

</Document>
</kml>
