<?xml version="1.0" encoding="utf-8"?>
<kml xmlns="http://www.opengis.net/kml/2.2">
<Document>
<name>22/975838/2462764.kml</name>
<description></description>
<Style><ListStyle id="hideChildren">
<listItemType>checkHideChildren</listItemType>
</ListStyle>
</Style>
<Folder>
<Region>
<LatLonAltBox>
<north>29.920199895866222</north>
<south>29.920125504582490</south>
<east>-96.243066787719727</east>
<west>-96.243152618408203</west>
</LatLonAltBox>
<Lod>
<minLodPixels>128</minLodPixels>
<maxLodPixels>-1</maxLodPixels>
</Lod>
</Region>
<GroundOverlay>
<drawOrder>44</drawOrder>
<Icon>
<href>../../22/975838/2462764.png</href>
</Icon>
<LatLonBox>
<north>29.920199895866222</north>
<south>29.920125504582490</south>
<east>-96.243066787719727</east>
<west>-96.243152618408203</west>
</LatLonBox>
</GroundOverlay>

</Folder>

</Document>
</kml>
