<?xml version="1.0" encoding="utf-8"?>
<kml xmlns="http://www.opengis.net/kml/2.2">
<Document>
<name>19/121977/307845.kml</name>
<description></description>
<Style><ListStyle id="hideChildren">
<listItemType>checkHideChildren</listItemType>
</ListStyle>
</Style>
<Folder>
<Region>
<LatLonAltBox>
<north>29.920423069383865</north>
<south>29.919827938891753</south>
<east>-96.244354248046875</east>
<west>-96.245040893554688</west>
</LatLonAltBox>
<Lod>
<minLodPixels>128</minLodPixels>
<maxLodPixels>-1</maxLodPixels>
</Lod>
</Region>
<GroundOverlay>
<drawOrder>38</drawOrder>
<Icon>
<href>../../19/121977/307845.png</href>
</Icon>
<LatLonBox>
<north>29.920423069383865</north>
<south>29.919827938891753</south>
<east>-96.244354248046875</east>
<west>-96.245040893554688</west>
</LatLonBox>
</GroundOverlay>
<NetworkLink>
<name>20/243954/615690.kml</name>
<Region>
<LatLonAltBox>
<north>29.920125504582490</north>
<south>29.919827938891753</south>
<east>-96.244697570800781</east>
<west>-96.245040893554688</west>
</LatLonAltBox>
<Lod>
<minLodPixels>128</minLodPixels>
<maxLodPixels>-1</maxLodPixels>
</Lod>
</Region>
<Link>
<href>../../20/243954/615690.kml</href>
<viewRefreshMode>onRegion</viewRefreshMode>
</Link>
</NetworkLink>
<NetworkLink>
<name>20/243955/615690.kml</name>
<Region>
<LatLonAltBox>
<north>29.920125504582490</north>
<south>29.919827938891753</south>
<east>-96.244354248046875</east>
<west>-96.244697570800781</west>
</LatLonAltBox>
<Lod>
<minLodPixels>128</minLodPixels>
<maxLodPixels>-1</maxLodPixels>
</Lod>
</Region>
<Link>
<href>../../20/243955/615690.kml</href>
<viewRefreshMode>onRegion</viewRefreshMode>
</Link>
</NetworkLink>
<NetworkLink>
<name>20/243954/615691.kml</name>
<Region>
<LatLonAltBox>
<north>29.920423069383865</north>
<south>29.920125504582490</south>
<east>-96.244697570800781</east>
<west>-96.245040893554688</west>
</LatLonAltBox>
<Lod>
<minLodPixels>128</minLodPixels>
<maxLodPixels>-1</maxLodPixels>
</Lod>
</Region>
<Link>
<href>../../20/243954/615691.kml</href>
<viewRefreshMode>onRegion</viewRefreshMode>
</Link>
</NetworkLink>
<NetworkLink>
<name>20/243955/615691.kml</name>
<Region>
<LatLonAltBox>
<north>29.920423069383865</north>
<south>29.920125504582490</south>
<east>-96.244354248046875</east>
<west>-96.244697570800781</west>
</LatLonAltBox>
<Lod>
<minLodPixels>128</minLodPixels>
<maxLodPixels>-1</maxLodPixels>
</Lod>
</Region>
<Link>
<href>../../20/243955/615691.kml</href>
<viewRefreshMode>onRegion</viewRefreshMode>
</Link>
</NetworkLink>

</Folder>

</Document>
</kml>
