<?xml version="1.0" encoding="utf-8"?>
<kml xmlns="http://www.opengis.net/kml/2.2">
<Document>
<name>20/243958/615693.kml</name>
<description></description>
<Style><ListStyle id="hideChildren">
<listItemType>checkHideChildren</listItemType>
</ListStyle>
</Style>
<Folder>
<Region>
<LatLonAltBox>
<north>29.921018196318517</north>
<south>29.920720633295858</south>
<east>-96.243324279785156</east>
<west>-96.243667602539062</west>
</LatLonAltBox>
<Lod>
<minLodPixels>128</minLodPixels>
<maxLodPixels>-1</maxLodPixels>
</Lod>
</Region>
<GroundOverlay>
<drawOrder>40</drawOrder>
<Icon>
<href>../../20/243958/615693.png</href>
</Icon>
<LatLonBox>
<north>29.921018196318517</north>
<south>29.920720633295858</south>
<east>-96.243324279785156</east>
<west>-96.243667602539062</west>
</LatLonBox>
</GroundOverlay>
<NetworkLink>
<name>21/487916/1231386.kml</name>
<Region>
<LatLonAltBox>
<north>29.920869414918368</north>
<south>29.920720633295858</south>
<east>-96.243495941162109</east>
<west>-96.243667602539062</west>
</LatLonAltBox>
<Lod>
<minLodPixels>128</minLodPixels>
<maxLodPixels>-1</maxLodPixels>
</Lod>
</Region>
<Link>
<href>../../21/487916/1231386.kml</href>
<viewRefreshMode>onRegion</viewRefreshMode>
</Link>
</NetworkLink>
<NetworkLink>
<name>21/487917/1231386.kml</name>
<Region>
<LatLonAltBox>
<north>29.920869414918368</north>
<south>29.920720633295858</south>
<east>-96.243324279785156</east>
<west>-96.243495941162109</west>
</LatLonAltBox>
<Lod>
<minLodPixels>128</minLodPixels>
<maxLodPixels>-1</maxLodPixels>
</Lod>
</Region>
<Link>
<href>../../21/487917/1231386.kml</href>
<viewRefreshMode>onRegion</viewRefreshMode>
</Link>
</NetworkLink>
<NetworkLink>
<name>21/487916/1231387.kml</name>
<Region>
<LatLonAltBox>
<north>29.921018196318517</north>
<south>29.920869414918368</south>
<east>-96.243495941162109</east>
<west>-96.243667602539062</west>
</LatLonAltBox>
<Lod>
<minLodPixels>128</minLodPixels>
<maxLodPixels>-1</maxLodPixels>
</Lod>
</Region>
<Link>
<href>../../21/487916/1231387.kml</href>
<viewRefreshMode>onRegion</viewRefreshMode>
</Link>
</NetworkLink>
<NetworkLink>
<name>21/487917/1231387.kml</name>
<Region>
<LatLonAltBox>
<north>29.921018196318517</north>
<south>29.920869414918368</south>
<east>-96.243324279785156</east>
<west>-96.243495941162109</west>
</LatLonAltBox>
<Lod>
<minLodPixels>128</minLodPixels>
<maxLodPixels>-1</maxLodPixels>
</Lod>
</Region>
<Link>
<href>../../21/487917/1231387.kml</href>
<viewRefreshMode>onRegion</viewRefreshMode>
</Link>
</NetworkLink>

</Folder>

</Document>
</kml>
