<?xml version="1.0" encoding="utf-8"?>
<kml xmlns="http://www.opengis.net/kml/2.2">
<Document>
<name>22/975874/2462756.kml</name>
<description></description>
<Style><ListStyle id="hideChildren">
<listItemType>checkHideChildren</listItemType>
</ListStyle>
</Style>
<Folder>
<Region>
<LatLonAltBox>
<north>29.919604764040027</north>
<south>29.919530372311630</south>
<east>-96.239976882934570</east>
<west>-96.240062713623047</west>
</LatLonAltBox>
<Lod>
<minLodPixels>128</minLodPixels>
<maxLodPixels>-1</maxLodPixels>
</Lod>
</Region>
<GroundOverlay>
<drawOrder>44</drawOrder>
<Icon>
<href>../../22/975874/2462756.png</href>
</Icon>
<LatLonBox>
<north>29.919604764040027</north>
<south>29.919530372311630</south>
<east>-96.239976882934570</east>
<west>-96.240062713623047</west>
</LatLonBox>
</GroundOverlay>

</Folder>

</Document>
</kml>
