<?xml version="1.0" encoding="utf-8"?>
<kml xmlns="http://www.opengis.net/kml/2.2">
<Document>
<name>22/975883/2462743.kml</name>
<description></description>
<Style><ListStyle id="hideChildren">
<listItemType>checkHideChildren</listItemType>
</ListStyle>
</Style>
<Folder>
<Region>
<LatLonAltBox>
<north>29.918637667235185</north>
<south>29.918563274784162</south>
<east>-96.239204406738281</east>
<west>-96.239290237426758</west>
</LatLonAltBox>
<Lod>
<minLodPixels>128</minLodPixels>
<maxLodPixels>-1</maxLodPixels>
</Lod>
</Region>
<GroundOverlay>
<drawOrder>44</drawOrder>
<Icon>
<href>../../22/975883/2462743.png</href>
</Icon>
<LatLonBox>
<north>29.918637667235185</north>
<south>29.918563274784162</south>
<east>-96.239204406738281</east>
<west>-96.239290237426758</west>
</LatLonBox>
</GroundOverlay>

</Folder>

</Document>
</kml>
