<?xml version="1.0" encoding="utf-8"?>
<kml xmlns="http://www.opengis.net/kml/2.2">
<Document>
<name>19/121978/307842.kml</name>
<description></description>
<Style><ListStyle id="hideChildren">
<listItemType>checkHideChildren</listItemType>
</ListStyle>
</Style>
<Folder>
<Region>
<LatLonAltBox>
<north>29.918637667235185</north>
<south>29.918042526070831</south>
<east>-96.243667602539062</east>
<west>-96.244354248046875</west>
</LatLonAltBox>
<Lod>
<minLodPixels>128</minLodPixels>
<maxLodPixels>-1</maxLodPixels>
</Lod>
</Region>
<GroundOverlay>
<drawOrder>38</drawOrder>
<Icon>
<href>../../19/121978/307842.png</href>
</Icon>
<LatLonBox>
<north>29.918637667235185</north>
<south>29.918042526070831</south>
<east>-96.243667602539062</east>
<west>-96.244354248046875</west>
</LatLonBox>
</GroundOverlay>
<NetworkLink>
<name>20/243956/615684.kml</name>
<Region>
<LatLonAltBox>
<north>29.918340097097651</north>
<south>29.918042526070831</south>
<east>-96.244010925292969</east>
<west>-96.244354248046875</west>
</LatLonAltBox>
<Lod>
<minLodPixels>128</minLodPixels>
<maxLodPixels>-1</maxLodPixels>
</Lod>
</Region>
<Link>
<href>../../20/243956/615684.kml</href>
<viewRefreshMode>onRegion</viewRefreshMode>
</Link>
</NetworkLink>
<NetworkLink>
<name>20/243957/615684.kml</name>
<Region>
<LatLonAltBox>
<north>29.918340097097651</north>
<south>29.918042526070831</south>
<east>-96.243667602539062</east>
<west>-96.244010925292969</west>
</LatLonAltBox>
<Lod>
<minLodPixels>128</minLodPixels>
<maxLodPixels>-1</maxLodPixels>
</Lod>
</Region>
<Link>
<href>../../20/243957/615684.kml</href>
<viewRefreshMode>onRegion</viewRefreshMode>
</Link>
</NetworkLink>
<NetworkLink>
<name>20/243956/615685.kml</name>
<Region>
<LatLonAltBox>
<north>29.918637667235185</north>
<south>29.918340097097651</south>
<east>-96.244010925292969</east>
<west>-96.244354248046875</west>
</LatLonAltBox>
<Lod>
<minLodPixels>128</minLodPixels>
<maxLodPixels>-1</maxLodPixels>
</Lod>
</Region>
<Link>
<href>../../20/243956/615685.kml</href>
<viewRefreshMode>onRegion</viewRefreshMode>
</Link>
</NetworkLink>
<NetworkLink>
<name>20/243957/615685.kml</name>
<Region>
<LatLonAltBox>
<north>29.918637667235185</north>
<south>29.918340097097651</south>
<east>-96.243667602539062</east>
<west>-96.244010925292969</west>
</LatLonAltBox>
<Lod>
<minLodPixels>128</minLodPixels>
<maxLodPixels>-1</maxLodPixels>
</Lod>
</Region>
<Link>
<href>../../20/243957/615685.kml</href>
<viewRefreshMode>onRegion</viewRefreshMode>
</Link>
</NetworkLink>

</Folder>

</Document>
</kml>
