<?xml version="1.0" encoding="utf-8"?>
<kml xmlns="http://www.opengis.net/kml/2.2">
<Document>
<name>19/121982/307844.kml</name>
<description></description>
<Style><ListStyle id="hideChildren">
<listItemType>checkHideChildren</listItemType>
</ListStyle>
</Style>
<Folder>
<Region>
<LatLonAltBox>
<north>29.919827938891753</north>
<south>29.919232804842174</south>
<east>-96.240921020507812</east>
<west>-96.241607666015625</west>
</LatLonAltBox>
<Lod>
<minLodPixels>128</minLodPixels>
<maxLodPixels>-1</maxLodPixels>
</Lod>
</Region>
<GroundOverlay>
<drawOrder>38</drawOrder>
<Icon>
<href>../../19/121982/307844.png</href>
</Icon>
<LatLonBox>
<north>29.919827938891753</north>
<south>29.919232804842174</south>
<east>-96.240921020507812</east>
<west>-96.241607666015625</west>
</LatLonBox>
</GroundOverlay>
<NetworkLink>
<name>20/243964/615688.kml</name>
<Region>
<LatLonAltBox>
<north>29.919530372311630</north>
<south>29.919232804842174</south>
<east>-96.241264343261719</east>
<west>-96.241607666015625</west>
</LatLonAltBox>
<Lod>
<minLodPixels>128</minLodPixels>
<maxLodPixels>-1</maxLodPixels>
</Lod>
</Region>
<Link>
<href>../../20/243964/615688.kml</href>
<viewRefreshMode>onRegion</viewRefreshMode>
</Link>
</NetworkLink>
<NetworkLink>
<name>20/243965/615688.kml</name>
<Region>
<LatLonAltBox>
<north>29.919530372311630</north>
<south>29.919232804842174</south>
<east>-96.240921020507812</east>
<west>-96.241264343261719</west>
</LatLonAltBox>
<Lod>
<minLodPixels>128</minLodPixels>
<maxLodPixels>-1</maxLodPixels>
</Lod>
</Region>
<Link>
<href>../../20/243965/615688.kml</href>
<viewRefreshMode>onRegion</viewRefreshMode>
</Link>
</NetworkLink>
<NetworkLink>
<name>20/243964/615689.kml</name>
<Region>
<LatLonAltBox>
<north>29.919827938891753</north>
<south>29.919530372311630</south>
<east>-96.241264343261719</east>
<west>-96.241607666015625</west>
</LatLonAltBox>
<Lod>
<minLodPixels>128</minLodPixels>
<maxLodPixels>-1</maxLodPixels>
</Lod>
</Region>
<Link>
<href>../../20/243964/615689.kml</href>
<viewRefreshMode>onRegion</viewRefreshMode>
</Link>
</NetworkLink>
<NetworkLink>
<name>20/243965/615689.kml</name>
<Region>
<LatLonAltBox>
<north>29.919827938891753</north>
<south>29.919530372311630</south>
<east>-96.240921020507812</east>
<west>-96.241264343261719</west>
</LatLonAltBox>
<Lod>
<minLodPixels>128</minLodPixels>
<maxLodPixels>-1</maxLodPixels>
</Lod>
</Region>
<Link>
<href>../../20/243965/615689.kml</href>
<viewRefreshMode>onRegion</viewRefreshMode>
</Link>
</NetworkLink>

</Folder>

</Document>
</kml>
