<?xml version="1.0" encoding="utf-8"?>
<kml xmlns="http://www.opengis.net/kml/2.2">
<Document>
<name>22/975830/2462774.kml</name>
<description></description>
<Style><ListStyle id="hideChildren">
<listItemType>checkHideChildren</listItemType>
</ListStyle>
</Style>
<Folder>
<Region>
<LatLonAltBox>
<north>29.920943805646214</north>
<south>29.920869414918368</south>
<east>-96.243753433227539</east>
<west>-96.243839263916016</west>
</LatLonAltBox>
<Lod>
<minLodPixels>128</minLodPixels>
<maxLodPixels>-1</maxLodPixels>
</Lod>
</Region>
<GroundOverlay>
<drawOrder>44</drawOrder>
<Icon>
<href>../../22/975830/2462774.png</href>
</Icon>
<LatLonBox>
<north>29.920943805646214</north>
<south>29.920869414918368</south>
<east>-96.243753433227539</east>
<west>-96.243839263916016</west>
</LatLonBox>
</GroundOverlay>

</Folder>

</Document>
</kml>
