<?xml version="1.0" encoding="utf-8"?>
<kml xmlns="http://www.opengis.net/kml/2.2">
<Document>
<name>22/975872/2462730.kml</name>
<description></description>
<Style><ListStyle id="hideChildren">
<listItemType>checkHideChildren</listItemType>
</ListStyle>
</Style>
<Folder>
<Region>
<LatLonAltBox>
<north>29.917670561036633</north>
<south>29.917596167863042</south>
<east>-96.240148544311523</east>
<west>-96.240234375000000</west>
</LatLonAltBox>
<Lod>
<minLodPixels>128</minLodPixels>
<maxLodPixels>-1</maxLodPixels>
</Lod>
</Region>
<GroundOverlay>
<drawOrder>44</drawOrder>
<Icon>
<href>../../22/975872/2462730.png</href>
</Icon>
<LatLonBox>
<north>29.917670561036633</north>
<south>29.917596167863042</south>
<east>-96.240148544311523</east>
<west>-96.240234375000000</west>
</LatLonBox>
</GroundOverlay>

</Folder>

</Document>
</kml>
