<?xml version="1.0" encoding="utf-8"?>
<kml xmlns="http://www.opengis.net/kml/2.2">
<Document>
<name>22/975876/2462783.kml</name>
<description></description>
<Style><ListStyle id="hideChildren">
<listItemType>checkHideChildren</listItemType>
</ListStyle>
</Style>
<Folder>
<Region>
<LatLonAltBox>
<north>29.921613319695606</north>
<south>29.921538929468021</south>
<east>-96.239805221557617</east>
<west>-96.239891052246094</west>
</LatLonAltBox>
<Lod>
<minLodPixels>128</minLodPixels>
<maxLodPixels>-1</maxLodPixels>
</Lod>
</Region>
<GroundOverlay>
<drawOrder>44</drawOrder>
<Icon>
<href>../../22/975876/2462783.png</href>
</Icon>
<LatLonBox>
<north>29.921613319695606</north>
<south>29.921538929468021</south>
<east>-96.239805221557617</east>
<west>-96.239891052246094</west>
</LatLonBox>
</GroundOverlay>

</Folder>

</Document>
</kml>
