<?xml version="1.0" encoding="utf-8"?>
<kml xmlns="http://www.opengis.net/kml/2.2">
<Document>
<name>21/487933/1231366.kml</name>
<description></description>
<Style><ListStyle id="hideChildren">
<listItemType>checkHideChildren</listItemType>
</ListStyle>
</Style>
<Folder>
<Region>
<LatLonAltBox>
<north>29.917893740223885</north>
<south>29.917744954154632</south>
<east>-96.240577697753906</east>
<west>-96.240749359130859</west>
</LatLonAltBox>
<Lod>
<minLodPixels>128</minLodPixels>
<maxLodPixels>-1</maxLodPixels>
</Lod>
</Region>
<GroundOverlay>
<drawOrder>42</drawOrder>
<Icon>
<href>../../21/487933/1231366.png</href>
</Icon>
<LatLonBox>
<north>29.917893740223885</north>
<south>29.917744954154632</south>
<east>-96.240577697753906</east>
<west>-96.240749359130859</west>
</LatLonBox>
</GroundOverlay>
<NetworkLink>
<name>22/975866/2462732.kml</name>
<Region>
<LatLonAltBox>
<north>29.917819347217055</north>
<south>29.917744954154632</south>
<east>-96.240663528442383</east>
<west>-96.240749359130859</west>
</LatLonAltBox>
<Lod>
<minLodPixels>128</minLodPixels>
<maxLodPixels>-1</maxLodPixels>
</Lod>
</Region>
<Link>
<href>../../22/975866/2462732.kml</href>
<viewRefreshMode>onRegion</viewRefreshMode>
</Link>
</NetworkLink>
<NetworkLink>
<name>22/975867/2462732.kml</name>
<Region>
<LatLonAltBox>
<north>29.917819347217055</north>
<south>29.917744954154632</south>
<east>-96.240577697753906</east>
<west>-96.240663528442383</west>
</LatLonAltBox>
<Lod>
<minLodPixels>128</minLodPixels>
<maxLodPixels>-1</maxLodPixels>
</Lod>
</Region>
<Link>
<href>../../22/975867/2462732.kml</href>
<viewRefreshMode>onRegion</viewRefreshMode>
</Link>
</NetworkLink>
<NetworkLink>
<name>22/975866/2462733.kml</name>
<Region>
<LatLonAltBox>
<north>29.917893740223885</north>
<south>29.917819347217055</south>
<east>-96.240663528442383</east>
<west>-96.240749359130859</west>
</LatLonAltBox>
<Lod>
<minLodPixels>128</minLodPixels>
<maxLodPixels>-1</maxLodPixels>
</Lod>
</Region>
<Link>
<href>../../22/975866/2462733.kml</href>
<viewRefreshMode>onRegion</viewRefreshMode>
</Link>
</NetworkLink>
<NetworkLink>
<name>22/975867/2462733.kml</name>
<Region>
<LatLonAltBox>
<north>29.917893740223885</north>
<south>29.917819347217055</south>
<east>-96.240577697753906</east>
<west>-96.240663528442383</west>
</LatLonAltBox>
<Lod>
<minLodPixels>128</minLodPixels>
<maxLodPixels>-1</maxLodPixels>
</Lod>
</Region>
<Link>
<href>../../22/975867/2462733.kml</href>
<viewRefreshMode>onRegion</viewRefreshMode>
</Link>
</NetworkLink>

</Folder>

</Document>
</kml>
