<?xml version="1.0" encoding="utf-8"?>
<kml xmlns="http://www.opengis.net/kml/2.2">
<Document>
<name>19/121980/307846.kml</name>
<description></description>
<Style><ListStyle id="hideChildren">
<listItemType>checkHideChildren</listItemType>
</ListStyle>
</Style>
<Folder>
<Region>
<LatLonAltBox>
<north>29.921018196318517</north>
<south>29.920423069383865</south>
<east>-96.242294311523438</east>
<west>-96.242980957031250</west>
</LatLonAltBox>
<Lod>
<minLodPixels>128</minLodPixels>
<maxLodPixels>-1</maxLodPixels>
</Lod>
</Region>
<GroundOverlay>
<drawOrder>38</drawOrder>
<Icon>
<href>../../19/121980/307846.png</href>
</Icon>
<LatLonBox>
<north>29.921018196318517</north>
<south>29.920423069383865</south>
<east>-96.242294311523438</east>
<west>-96.242980957031250</west>
</LatLonBox>
</GroundOverlay>
<NetworkLink>
<name>20/243960/615692.kml</name>
<Region>
<LatLonAltBox>
<north>29.920720633295858</north>
<south>29.920423069383865</south>
<east>-96.242637634277344</east>
<west>-96.242980957031250</west>
</LatLonAltBox>
<Lod>
<minLodPixels>128</minLodPixels>
<maxLodPixels>-1</maxLodPixels>
</Lod>
</Region>
<Link>
<href>../../20/243960/615692.kml</href>
<viewRefreshMode>onRegion</viewRefreshMode>
</Link>
</NetworkLink>
<NetworkLink>
<name>20/243961/615692.kml</name>
<Region>
<LatLonAltBox>
<north>29.920720633295858</north>
<south>29.920423069383865</south>
<east>-96.242294311523438</east>
<west>-96.242637634277344</west>
</LatLonAltBox>
<Lod>
<minLodPixels>128</minLodPixels>
<maxLodPixels>-1</maxLodPixels>
</Lod>
</Region>
<Link>
<href>../../20/243961/615692.kml</href>
<viewRefreshMode>onRegion</viewRefreshMode>
</Link>
</NetworkLink>
<NetworkLink>
<name>20/243960/615693.kml</name>
<Region>
<LatLonAltBox>
<north>29.921018196318517</north>
<south>29.920720633295858</south>
<east>-96.242637634277344</east>
<west>-96.242980957031250</west>
</LatLonAltBox>
<Lod>
<minLodPixels>128</minLodPixels>
<maxLodPixels>-1</maxLodPixels>
</Lod>
</Region>
<Link>
<href>../../20/243960/615693.kml</href>
<viewRefreshMode>onRegion</viewRefreshMode>
</Link>
</NetworkLink>
<NetworkLink>
<name>20/243961/615693.kml</name>
<Region>
<LatLonAltBox>
<north>29.921018196318517</north>
<south>29.920720633295858</south>
<east>-96.242294311523438</east>
<west>-96.242637634277344</west>
</LatLonAltBox>
<Lod>
<minLodPixels>128</minLodPixels>
<maxLodPixels>-1</maxLodPixels>
</Lod>
</Region>
<Link>
<href>../../20/243961/615693.kml</href>
<viewRefreshMode>onRegion</viewRefreshMode>
</Link>
</NetworkLink>

</Folder>

</Document>
</kml>
