<?xml version="1.0" encoding="utf-8"?>
<kml xmlns="http://www.opengis.net/kml/2.2">
<Document>
<name>21/487930/1231397.kml</name>
<description></description>
<Style><ListStyle id="hideChildren">
<listItemType>checkHideChildren</listItemType>
</ListStyle>
</Style>
<Folder>
<Region>
<LatLonAltBox>
<north>29.922505998090735</north>
<south>29.922357218914122</south>
<east>-96.241092681884766</east>
<west>-96.241264343261719</west>
</LatLonAltBox>
<Lod>
<minLodPixels>128</minLodPixels>
<maxLodPixels>-1</maxLodPixels>
</Lod>
</Region>
<GroundOverlay>
<drawOrder>42</drawOrder>
<Icon>
<href>../../21/487930/1231397.png</href>
</Icon>
<LatLonBox>
<north>29.922505998090735</north>
<south>29.922357218914122</south>
<east>-96.241092681884766</east>
<west>-96.241264343261719</west>
</LatLonBox>
</GroundOverlay>
<NetworkLink>
<name>22/975860/2462794.kml</name>
<Region>
<LatLonAltBox>
<north>29.922431608530200</north>
<south>29.922357218914122</south>
<east>-96.241178512573242</east>
<west>-96.241264343261719</west>
</LatLonAltBox>
<Lod>
<minLodPixels>128</minLodPixels>
<maxLodPixels>-1</maxLodPixels>
</Lod>
</Region>
<Link>
<href>../../22/975860/2462794.kml</href>
<viewRefreshMode>onRegion</viewRefreshMode>
</Link>
</NetworkLink>
<NetworkLink>
<name>22/975861/2462794.kml</name>
<Region>
<LatLonAltBox>
<north>29.922431608530200</north>
<south>29.922357218914122</south>
<east>-96.241092681884766</east>
<west>-96.241178512573242</west>
</LatLonAltBox>
<Lod>
<minLodPixels>128</minLodPixels>
<maxLodPixels>-1</maxLodPixels>
</Lod>
</Region>
<Link>
<href>../../22/975861/2462794.kml</href>
<viewRefreshMode>onRegion</viewRefreshMode>
</Link>
</NetworkLink>
<NetworkLink>
<name>22/975860/2462795.kml</name>
<Region>
<LatLonAltBox>
<north>29.922505998090735</north>
<south>29.922431608530200</south>
<east>-96.241178512573242</east>
<west>-96.241264343261719</west>
</LatLonAltBox>
<Lod>
<minLodPixels>128</minLodPixels>
<maxLodPixels>-1</maxLodPixels>
</Lod>
</Region>
<Link>
<href>../../22/975860/2462795.kml</href>
<viewRefreshMode>onRegion</viewRefreshMode>
</Link>
</NetworkLink>
<NetworkLink>
<name>22/975861/2462795.kml</name>
<Region>
<LatLonAltBox>
<north>29.922505998090735</north>
<south>29.922431608530200</south>
<east>-96.241092681884766</east>
<west>-96.241178512573242</west>
</LatLonAltBox>
<Lod>
<minLodPixels>128</minLodPixels>
<maxLodPixels>-1</maxLodPixels>
</Lod>
</Region>
<Link>
<href>../../22/975861/2462795.kml</href>
<viewRefreshMode>onRegion</viewRefreshMode>
</Link>
</NetworkLink>

</Folder>

</Document>
</kml>
