<?xml version="1.0" encoding="utf-8"?>
<kml xmlns="http://www.opengis.net/kml/2.2">
<Document>
<name>21/487941/1231373.kml</name>
<description></description>
<Style><ListStyle id="hideChildren">
<listItemType>checkHideChildren</listItemType>
</ListStyle>
</Style>
<Folder>
<Region>
<LatLonAltBox>
<north>29.918935236483332</north>
<south>29.918786451970412</south>
<east>-96.239204406738281</east>
<west>-96.239376068115234</west>
</LatLonAltBox>
<Lod>
<minLodPixels>128</minLodPixels>
<maxLodPixels>-1</maxLodPixels>
</Lod>
</Region>
<GroundOverlay>
<drawOrder>42</drawOrder>
<Icon>
<href>../../21/487941/1231373.png</href>
</Icon>
<LatLonBox>
<north>29.918935236483332</north>
<south>29.918786451970412</south>
<east>-96.239204406738281</east>
<west>-96.239376068115234</west>
</LatLonBox>
</GroundOverlay>
<NetworkLink>
<name>22/975882/2462746.kml</name>
<Region>
<LatLonAltBox>
<north>29.918860844254670</north>
<south>29.918786451970412</south>
<east>-96.239290237426758</east>
<west>-96.239376068115234</west>
</LatLonAltBox>
<Lod>
<minLodPixels>128</minLodPixels>
<maxLodPixels>-1</maxLodPixels>
</Lod>
</Region>
<Link>
<href>../../22/975882/2462746.kml</href>
<viewRefreshMode>onRegion</viewRefreshMode>
</Link>
</NetworkLink>
<NetworkLink>
<name>22/975883/2462746.kml</name>
<Region>
<LatLonAltBox>
<north>29.918860844254670</north>
<south>29.918786451970412</south>
<east>-96.239204406738281</east>
<west>-96.239290237426758</west>
</LatLonAltBox>
<Lod>
<minLodPixels>128</minLodPixels>
<maxLodPixels>-1</maxLodPixels>
</Lod>
</Region>
<Link>
<href>../../22/975883/2462746.kml</href>
<viewRefreshMode>onRegion</viewRefreshMode>
</Link>
</NetworkLink>
<NetworkLink>
<name>22/975882/2462747.kml</name>
<Region>
<LatLonAltBox>
<north>29.918935236483332</north>
<south>29.918860844254670</south>
<east>-96.239290237426758</east>
<west>-96.239376068115234</west>
</LatLonAltBox>
<Lod>
<minLodPixels>128</minLodPixels>
<maxLodPixels>-1</maxLodPixels>
</Lod>
</Region>
<Link>
<href>../../22/975882/2462747.kml</href>
<viewRefreshMode>onRegion</viewRefreshMode>
</Link>
</NetworkLink>
<NetworkLink>
<name>22/975883/2462747.kml</name>
<Region>
<LatLonAltBox>
<north>29.918935236483332</north>
<south>29.918860844254670</south>
<east>-96.239204406738281</east>
<west>-96.239290237426758</west>
</LatLonAltBox>
<Lod>
<minLodPixels>128</minLodPixels>
<maxLodPixels>-1</maxLodPixels>
</Lod>
</Region>
<Link>
<href>../../22/975883/2462747.kml</href>
<viewRefreshMode>onRegion</viewRefreshMode>
</Link>
</NetworkLink>

</Folder>

</Document>
</kml>
