<?xml version="1.0" encoding="utf-8"?>
<kml xmlns="http://www.opengis.net/kml/2.2">
<Document>
<name>21/487906/1231369.kml</name>
<description></description>
<Style><ListStyle id="hideChildren">
<listItemType>checkHideChildren</listItemType>
</ListStyle>
</Style>
<Folder>
<Region>
<LatLonAltBox>
<north>29.918340097097651</north>
<south>29.918191311695395</south>
<east>-96.245212554931641</east>
<west>-96.245384216308594</west>
</LatLonAltBox>
<Lod>
<minLodPixels>128</minLodPixels>
<maxLodPixels>-1</maxLodPixels>
</Lod>
</Region>
<GroundOverlay>
<drawOrder>42</drawOrder>
<Icon>
<href>../../21/487906/1231369.png</href>
</Icon>
<LatLonBox>
<north>29.918340097097651</north>
<south>29.918191311695395</south>
<east>-96.245212554931641</east>
<west>-96.245384216308594</west>
</LatLonBox>
</GroundOverlay>
<NetworkLink>
<name>22/975813/2462738.kml</name>
<Region>
<LatLonAltBox>
<north>29.918265704424321</north>
<south>29.918191311695395</south>
<east>-96.245212554931641</east>
<west>-96.245298385620117</west>
</LatLonAltBox>
<Lod>
<minLodPixels>128</minLodPixels>
<maxLodPixels>-1</maxLodPixels>
</Lod>
</Region>
<Link>
<href>../../22/975813/2462738.kml</href>
<viewRefreshMode>onRegion</viewRefreshMode>
</Link>
</NetworkLink>
<NetworkLink>
<name>22/975813/2462739.kml</name>
<Region>
<LatLonAltBox>
<north>29.918340097097651</north>
<south>29.918265704424321</south>
<east>-96.245212554931641</east>
<west>-96.245298385620117</west>
</LatLonAltBox>
<Lod>
<minLodPixels>128</minLodPixels>
<maxLodPixels>-1</maxLodPixels>
</Lod>
</Region>
<Link>
<href>../../22/975813/2462739.kml</href>
<viewRefreshMode>onRegion</viewRefreshMode>
</Link>
</NetworkLink>

</Folder>

</Document>
</kml>
