<?xml version="1.0" encoding="utf-8"?>
<kml xmlns="http://www.opengis.net/kml/2.2">
<Document>
<name>20/243960/615698.kml</name>
<description></description>
<Style><ListStyle id="hideChildren">
<listItemType>checkHideChildren</listItemType>
</ListStyle>
</Style>
<Folder>
<Region>
<LatLonAltBox>
<north>29.922505998090735</north>
<south>29.922208439515099</south>
<east>-96.242637634277344</east>
<west>-96.242980957031250</west>
</LatLonAltBox>
<Lod>
<minLodPixels>128</minLodPixels>
<maxLodPixels>-1</maxLodPixels>
</Lod>
</Region>
<GroundOverlay>
<drawOrder>40</drawOrder>
<Icon>
<href>../../20/243960/615698.png</href>
</Icon>
<LatLonBox>
<north>29.922505998090735</north>
<south>29.922208439515099</south>
<east>-96.242637634277344</east>
<west>-96.242980957031250</west>
</LatLonBox>
</GroundOverlay>
<NetworkLink>
<name>21/487920/1231396.kml</name>
<Region>
<LatLonAltBox>
<north>29.922357218914122</north>
<south>29.922208439515099</south>
<east>-96.242809295654297</east>
<west>-96.242980957031250</west>
</LatLonAltBox>
<Lod>
<minLodPixels>128</minLodPixels>
<maxLodPixels>-1</maxLodPixels>
</Lod>
</Region>
<Link>
<href>../../21/487920/1231396.kml</href>
<viewRefreshMode>onRegion</viewRefreshMode>
</Link>
</NetworkLink>
<NetworkLink>
<name>21/487921/1231396.kml</name>
<Region>
<LatLonAltBox>
<north>29.922357218914122</north>
<south>29.922208439515099</south>
<east>-96.242637634277344</east>
<west>-96.242809295654297</west>
</LatLonAltBox>
<Lod>
<minLodPixels>128</minLodPixels>
<maxLodPixels>-1</maxLodPixels>
</Lod>
</Region>
<Link>
<href>../../21/487921/1231396.kml</href>
<viewRefreshMode>onRegion</viewRefreshMode>
</Link>
</NetworkLink>
<NetworkLink>
<name>21/487920/1231397.kml</name>
<Region>
<LatLonAltBox>
<north>29.922505998090735</north>
<south>29.922357218914122</south>
<east>-96.242809295654297</east>
<west>-96.242980957031250</west>
</LatLonAltBox>
<Lod>
<minLodPixels>128</minLodPixels>
<maxLodPixels>-1</maxLodPixels>
</Lod>
</Region>
<Link>
<href>../../21/487920/1231397.kml</href>
<viewRefreshMode>onRegion</viewRefreshMode>
</Link>
</NetworkLink>
<NetworkLink>
<name>21/487921/1231397.kml</name>
<Region>
<LatLonAltBox>
<north>29.922505998090735</north>
<south>29.922357218914122</south>
<east>-96.242637634277344</east>
<west>-96.242809295654297</west>
</LatLonAltBox>
<Lod>
<minLodPixels>128</minLodPixels>
<maxLodPixels>-1</maxLodPixels>
</Lod>
</Region>
<Link>
<href>../../21/487921/1231397.kml</href>
<viewRefreshMode>onRegion</viewRefreshMode>
</Link>
</NetworkLink>

</Folder>

</Document>
</kml>
