<?xml version="1.0" encoding="utf-8"?>
<kml xmlns="http://www.opengis.net/kml/2.2">
<Document>
<name>20/243959/615691.kml</name>
<description></description>
<Style><ListStyle id="hideChildren">
<listItemType>checkHideChildren</listItemType>
</ListStyle>
</Style>
<Folder>
<Region>
<LatLonAltBox>
<north>29.920423069383865</north>
<south>29.920125504582490</south>
<east>-96.242980957031250</east>
<west>-96.243324279785156</west>
</LatLonAltBox>
<Lod>
<minLodPixels>128</minLodPixels>
<maxLodPixels>-1</maxLodPixels>
</Lod>
</Region>
<GroundOverlay>
<drawOrder>40</drawOrder>
<Icon>
<href>../../20/243959/615691.png</href>
</Icon>
<LatLonBox>
<north>29.920423069383865</north>
<south>29.920125504582490</south>
<east>-96.242980957031250</east>
<west>-96.243324279785156</west>
</LatLonBox>
</GroundOverlay>
<NetworkLink>
<name>21/487918/1231382.kml</name>
<Region>
<LatLonAltBox>
<north>29.920274287094358</north>
<south>29.920125504582490</south>
<east>-96.243152618408203</east>
<west>-96.243324279785156</west>
</LatLonAltBox>
<Lod>
<minLodPixels>128</minLodPixels>
<maxLodPixels>-1</maxLodPixels>
</Lod>
</Region>
<Link>
<href>../../21/487918/1231382.kml</href>
<viewRefreshMode>onRegion</viewRefreshMode>
</Link>
</NetworkLink>
<NetworkLink>
<name>21/487919/1231382.kml</name>
<Region>
<LatLonAltBox>
<north>29.920274287094358</north>
<south>29.920125504582490</south>
<east>-96.242980957031250</east>
<west>-96.243152618408203</west>
</LatLonAltBox>
<Lod>
<minLodPixels>128</minLodPixels>
<maxLodPixels>-1</maxLodPixels>
</Lod>
</Region>
<Link>
<href>../../21/487919/1231382.kml</href>
<viewRefreshMode>onRegion</viewRefreshMode>
</Link>
</NetworkLink>
<NetworkLink>
<name>21/487918/1231383.kml</name>
<Region>
<LatLonAltBox>
<north>29.920423069383865</north>
<south>29.920274287094358</south>
<east>-96.243152618408203</east>
<west>-96.243324279785156</west>
</LatLonAltBox>
<Lod>
<minLodPixels>128</minLodPixels>
<maxLodPixels>-1</maxLodPixels>
</Lod>
</Region>
<Link>
<href>../../21/487918/1231383.kml</href>
<viewRefreshMode>onRegion</viewRefreshMode>
</Link>
</NetworkLink>
<NetworkLink>
<name>21/487919/1231383.kml</name>
<Region>
<LatLonAltBox>
<north>29.920423069383865</north>
<south>29.920274287094358</south>
<east>-96.242980957031250</east>
<west>-96.243152618408203</west>
</LatLonAltBox>
<Lod>
<minLodPixels>128</minLodPixels>
<maxLodPixels>-1</maxLodPixels>
</Lod>
</Region>
<Link>
<href>../../21/487919/1231383.kml</href>
<viewRefreshMode>onRegion</viewRefreshMode>
</Link>
</NetworkLink>

</Folder>

</Document>
</kml>
