<?xml version="1.0" encoding="utf-8"?>
<kml xmlns="http://www.opengis.net/kml/2.2">
<Document>
<name>20/243968/615683.kml</name>
<description></description>
<Style><ListStyle id="hideChildren">
<listItemType>checkHideChildren</listItemType>
</ListStyle>
</Style>
<Folder>
<Region>
<LatLonAltBox>
<north>29.918042526070831</north>
<south>29.917744954154632</south>
<east>-96.239891052246094</east>
<west>-96.240234375000000</west>
</LatLonAltBox>
<Lod>
<minLodPixels>128</minLodPixels>
<maxLodPixels>-1</maxLodPixels>
</Lod>
</Region>
<GroundOverlay>
<drawOrder>40</drawOrder>
<Icon>
<href>../../20/243968/615683.png</href>
</Icon>
<LatLonBox>
<north>29.918042526070831</north>
<south>29.917744954154632</south>
<east>-96.239891052246094</east>
<west>-96.240234375000000</west>
</LatLonBox>
</GroundOverlay>
<NetworkLink>
<name>21/487936/1231366.kml</name>
<Region>
<LatLonAltBox>
<north>29.917893740223885</north>
<south>29.917744954154632</south>
<east>-96.240062713623047</east>
<west>-96.240234375000000</west>
</LatLonAltBox>
<Lod>
<minLodPixels>128</minLodPixels>
<maxLodPixels>-1</maxLodPixels>
</Lod>
</Region>
<Link>
<href>../../21/487936/1231366.kml</href>
<viewRefreshMode>onRegion</viewRefreshMode>
</Link>
</NetworkLink>
<NetworkLink>
<name>21/487937/1231366.kml</name>
<Region>
<LatLonAltBox>
<north>29.917893740223885</north>
<south>29.917744954154632</south>
<east>-96.239891052246094</east>
<west>-96.240062713623047</west>
</LatLonAltBox>
<Lod>
<minLodPixels>128</minLodPixels>
<maxLodPixels>-1</maxLodPixels>
</Lod>
</Region>
<Link>
<href>../../21/487937/1231366.kml</href>
<viewRefreshMode>onRegion</viewRefreshMode>
</Link>
</NetworkLink>
<NetworkLink>
<name>21/487936/1231367.kml</name>
<Region>
<LatLonAltBox>
<north>29.918042526070831</north>
<south>29.917893740223885</south>
<east>-96.240062713623047</east>
<west>-96.240234375000000</west>
</LatLonAltBox>
<Lod>
<minLodPixels>128</minLodPixels>
<maxLodPixels>-1</maxLodPixels>
</Lod>
</Region>
<Link>
<href>../../21/487936/1231367.kml</href>
<viewRefreshMode>onRegion</viewRefreshMode>
</Link>
</NetworkLink>
<NetworkLink>
<name>21/487937/1231367.kml</name>
<Region>
<LatLonAltBox>
<north>29.918042526070831</north>
<south>29.917893740223885</south>
<east>-96.239891052246094</east>
<west>-96.240062713623047</west>
</LatLonAltBox>
<Lod>
<minLodPixels>128</minLodPixels>
<maxLodPixels>-1</maxLodPixels>
</Lod>
</Region>
<Link>
<href>../../21/487937/1231367.kml</href>
<viewRefreshMode>onRegion</viewRefreshMode>
</Link>
</NetworkLink>

</Folder>

</Document>
</kml>
