<?xml version="1.0" encoding="utf-8"?>
<kml xmlns="http://www.opengis.net/kml/2.2">
<Document>
<name>22/975821/2462745.kml</name>
<description></description>
<Style><ListStyle id="hideChildren">
<listItemType>checkHideChildren</listItemType>
</ListStyle>
</Style>
<Folder>
<Region>
<LatLonAltBox>
<north>29.918786451970412</north>
<south>29.918712059630611</south>
<east>-96.244525909423828</east>
<west>-96.244611740112305</west>
</LatLonAltBox>
<Lod>
<minLodPixels>128</minLodPixels>
<maxLodPixels>-1</maxLodPixels>
</Lod>
</Region>
<GroundOverlay>
<drawOrder>44</drawOrder>
<Icon>
<href>../../22/975821/2462745.png</href>
</Icon>
<LatLonBox>
<north>29.918786451970412</north>
<south>29.918712059630611</south>
<east>-96.244525909423828</east>
<west>-96.244611740112305</west>
</LatLonBox>
</GroundOverlay>

</Folder>

</Document>
</kml>
