<?xml version="1.0" encoding="utf-8"?>
<kml xmlns="http://www.opengis.net/kml/2.2">
<Document>
<name>21/487914/1231388.kml</name>
<description></description>
<Style><ListStyle id="hideChildren">
<listItemType>checkHideChildren</listItemType>
</ListStyle>
</Style>
<Folder>
<Region>
<LatLonAltBox>
<north>29.921166977496284</north>
<south>29.921018196318517</south>
<east>-96.243839263916016</east>
<west>-96.244010925292969</west>
</LatLonAltBox>
<Lod>
<minLodPixels>128</minLodPixels>
<maxLodPixels>-1</maxLodPixels>
</Lod>
</Region>
<GroundOverlay>
<drawOrder>42</drawOrder>
<Icon>
<href>../../21/487914/1231388.png</href>
</Icon>
<LatLonBox>
<north>29.921166977496284</north>
<south>29.921018196318517</south>
<east>-96.243839263916016</east>
<west>-96.244010925292969</west>
</LatLonBox>
</GroundOverlay>
<NetworkLink>
<name>22/975828/2462776.kml</name>
<Region>
<LatLonAltBox>
<north>29.921092586935199</north>
<south>29.921018196318517</south>
<east>-96.243925094604492</east>
<west>-96.244010925292969</west>
</LatLonAltBox>
<Lod>
<minLodPixels>128</minLodPixels>
<maxLodPixels>-1</maxLodPixels>
</Lod>
</Region>
<Link>
<href>../../22/975828/2462776.kml</href>
<viewRefreshMode>onRegion</viewRefreshMode>
</Link>
</NetworkLink>
<NetworkLink>
<name>22/975829/2462776.kml</name>
<Region>
<LatLonAltBox>
<north>29.921092586935199</north>
<south>29.921018196318517</south>
<east>-96.243839263916016</east>
<west>-96.243925094604492</west>
</LatLonAltBox>
<Lod>
<minLodPixels>128</minLodPixels>
<maxLodPixels>-1</maxLodPixels>
</Lod>
</Region>
<Link>
<href>../../22/975829/2462776.kml</href>
<viewRefreshMode>onRegion</viewRefreshMode>
</Link>
</NetworkLink>
<NetworkLink>
<name>22/975828/2462777.kml</name>
<Region>
<LatLonAltBox>
<north>29.921166977496284</north>
<south>29.921092586935199</south>
<east>-96.243925094604492</east>
<west>-96.244010925292969</west>
</LatLonAltBox>
<Lod>
<minLodPixels>128</minLodPixels>
<maxLodPixels>-1</maxLodPixels>
</Lod>
</Region>
<Link>
<href>../../22/975828/2462777.kml</href>
<viewRefreshMode>onRegion</viewRefreshMode>
</Link>
</NetworkLink>
<NetworkLink>
<name>22/975829/2462777.kml</name>
<Region>
<LatLonAltBox>
<north>29.921166977496284</north>
<south>29.921092586935199</south>
<east>-96.243839263916016</east>
<west>-96.243925094604492</west>
</LatLonAltBox>
<Lod>
<minLodPixels>128</minLodPixels>
<maxLodPixels>-1</maxLodPixels>
</Lod>
</Region>
<Link>
<href>../../22/975829/2462777.kml</href>
<viewRefreshMode>onRegion</viewRefreshMode>
</Link>
</NetworkLink>

</Folder>

</Document>
</kml>
