<?xml version="1.0" encoding="utf-8"?>
<kml xmlns="http://www.opengis.net/kml/2.2">
<Document>
<name>22/975829/2462793.kml</name>
<description></description>
<Style><ListStyle id="hideChildren">
<listItemType>checkHideChildren</listItemType>
</ListStyle>
</Style>
<Folder>
<Region>
<LatLonAltBox>
<north>29.922357218914122</north>
<south>29.922282829242395</south>
<east>-96.243839263916016</east>
<west>-96.243925094604492</west>
</LatLonAltBox>
<Lod>
<minLodPixels>128</minLodPixels>
<maxLodPixels>-1</maxLodPixels>
</Lod>
</Region>
<GroundOverlay>
<drawOrder>44</drawOrder>
<Icon>
<href>../../22/975829/2462793.png</href>
</Icon>
<LatLonBox>
<north>29.922357218914122</north>
<south>29.922282829242395</south>
<east>-96.243839263916016</east>
<west>-96.243925094604492</west>
</LatLonBox>
</GroundOverlay>

</Folder>

</Document>
</kml>
