<?xml version="1.0" encoding="utf-8"?>
<kml xmlns="http://www.opengis.net/kml/2.2">
<Document>
<name>20/243956/615689.kml</name>
<description></description>
<Style><ListStyle id="hideChildren">
<listItemType>checkHideChildren</listItemType>
</ListStyle>
</Style>
<Folder>
<Region>
<LatLonAltBox>
<north>29.919827938891753</north>
<south>29.919530372311630</south>
<east>-96.244010925292969</east>
<west>-96.244354248046875</west>
</LatLonAltBox>
<Lod>
<minLodPixels>128</minLodPixels>
<maxLodPixels>-1</maxLodPixels>
</Lod>
</Region>
<GroundOverlay>
<drawOrder>40</drawOrder>
<Icon>
<href>../../20/243956/615689.png</href>
</Icon>
<LatLonBox>
<north>29.919827938891753</north>
<south>29.919530372311630</south>
<east>-96.244010925292969</east>
<west>-96.244354248046875</west>
</LatLonBox>
</GroundOverlay>
<NetworkLink>
<name>21/487912/1231378.kml</name>
<Region>
<LatLonAltBox>
<north>29.919679155712856</north>
<south>29.919530372311630</south>
<east>-96.244182586669922</east>
<west>-96.244354248046875</west>
</LatLonAltBox>
<Lod>
<minLodPixels>128</minLodPixels>
<maxLodPixels>-1</maxLodPixels>
</Lod>
</Region>
<Link>
<href>../../21/487912/1231378.kml</href>
<viewRefreshMode>onRegion</viewRefreshMode>
</Link>
</NetworkLink>
<NetworkLink>
<name>21/487913/1231378.kml</name>
<Region>
<LatLonAltBox>
<north>29.919679155712856</north>
<south>29.919530372311630</south>
<east>-96.244010925292969</east>
<west>-96.244182586669922</west>
</LatLonAltBox>
<Lod>
<minLodPixels>128</minLodPixels>
<maxLodPixels>-1</maxLodPixels>
</Lod>
</Region>
<Link>
<href>../../21/487913/1231378.kml</href>
<viewRefreshMode>onRegion</viewRefreshMode>
</Link>
</NetworkLink>
<NetworkLink>
<name>21/487912/1231379.kml</name>
<Region>
<LatLonAltBox>
<north>29.919827938891753</north>
<south>29.919679155712856</south>
<east>-96.244182586669922</east>
<west>-96.244354248046875</west>
</LatLonAltBox>
<Lod>
<minLodPixels>128</minLodPixels>
<maxLodPixels>-1</maxLodPixels>
</Lod>
</Region>
<Link>
<href>../../21/487912/1231379.kml</href>
<viewRefreshMode>onRegion</viewRefreshMode>
</Link>
</NetworkLink>
<NetworkLink>
<name>21/487913/1231379.kml</name>
<Region>
<LatLonAltBox>
<north>29.919827938891753</north>
<south>29.919679155712856</south>
<east>-96.244010925292969</east>
<west>-96.244182586669922</west>
</LatLonAltBox>
<Lod>
<minLodPixels>128</minLodPixels>
<maxLodPixels>-1</maxLodPixels>
</Lod>
</Region>
<Link>
<href>../../21/487913/1231379.kml</href>
<viewRefreshMode>onRegion</viewRefreshMode>
</Link>
</NetworkLink>

</Folder>

</Document>
</kml>
