<?xml version="1.0" encoding="utf-8"?>
<kml xmlns="http://www.opengis.net/kml/2.2">
<Document>
<name>22/975859/2462734.kml</name>
<description></description>
<Style><ListStyle id="hideChildren">
<listItemType>checkHideChildren</listItemType>
</ListStyle>
</Style>
<Folder>
<Region>
<LatLonAltBox>
<north>29.917968133175144</north>
<south>29.917893740223885</south>
<east>-96.241264343261719</east>
<west>-96.241350173950195</west>
</LatLonAltBox>
<Lod>
<minLodPixels>128</minLodPixels>
<maxLodPixels>-1</maxLodPixels>
</Lod>
</Region>
<GroundOverlay>
<drawOrder>44</drawOrder>
<Icon>
<href>../../22/975859/2462734.png</href>
</Icon>
<LatLonBox>
<north>29.917968133175144</north>
<south>29.917893740223885</south>
<east>-96.241264343261719</east>
<west>-96.241350173950195</west>
</LatLonBox>
</GroundOverlay>

</Folder>

</Document>
</kml>
