<?xml version="1.0" encoding="utf-8"?>
<kml xmlns="http://www.opengis.net/kml/2.2">
<Document>
<name>21/487936/1231381.kml</name>
<description></description>
<Style><ListStyle id="hideChildren">
<listItemType>checkHideChildren</listItemType>
</ListStyle>
</Style>
<Folder>
<Region>
<LatLonAltBox>
<north>29.920125504582490</north>
<south>29.919976721848286</south>
<east>-96.240062713623047</east>
<west>-96.240234375000000</west>
</LatLonAltBox>
<Lod>
<minLodPixels>128</minLodPixels>
<maxLodPixels>-1</maxLodPixels>
</Lod>
</Region>
<GroundOverlay>
<drawOrder>42</drawOrder>
<Icon>
<href>../../21/487936/1231381.png</href>
</Icon>
<LatLonBox>
<north>29.920125504582490</north>
<south>29.919976721848286</south>
<east>-96.240062713623047</east>
<west>-96.240234375000000</west>
</LatLonBox>
</GroundOverlay>
<NetworkLink>
<name>22/975872/2462762.kml</name>
<Region>
<LatLonAltBox>
<north>29.920051113243161</north>
<south>29.919976721848286</south>
<east>-96.240148544311523</east>
<west>-96.240234375000000</west>
</LatLonAltBox>
<Lod>
<minLodPixels>128</minLodPixels>
<maxLodPixels>-1</maxLodPixels>
</Lod>
</Region>
<Link>
<href>../../22/975872/2462762.kml</href>
<viewRefreshMode>onRegion</viewRefreshMode>
</Link>
</NetworkLink>
<NetworkLink>
<name>22/975873/2462762.kml</name>
<Region>
<LatLonAltBox>
<north>29.920051113243161</north>
<south>29.919976721848286</south>
<east>-96.240062713623047</east>
<west>-96.240148544311523</west>
</LatLonAltBox>
<Lod>
<minLodPixels>128</minLodPixels>
<maxLodPixels>-1</maxLodPixels>
</Lod>
</Region>
<Link>
<href>../../22/975873/2462762.kml</href>
<viewRefreshMode>onRegion</viewRefreshMode>
</Link>
</NetworkLink>
<NetworkLink>
<name>22/975872/2462763.kml</name>
<Region>
<LatLonAltBox>
<north>29.920125504582490</north>
<south>29.920051113243161</south>
<east>-96.240148544311523</east>
<west>-96.240234375000000</west>
</LatLonAltBox>
<Lod>
<minLodPixels>128</minLodPixels>
<maxLodPixels>-1</maxLodPixels>
</Lod>
</Region>
<Link>
<href>../../22/975872/2462763.kml</href>
<viewRefreshMode>onRegion</viewRefreshMode>
</Link>
</NetworkLink>
<NetworkLink>
<name>22/975873/2462763.kml</name>
<Region>
<LatLonAltBox>
<north>29.920125504582490</north>
<south>29.920051113243161</south>
<east>-96.240062713623047</east>
<west>-96.240148544311523</west>
</LatLonAltBox>
<Lod>
<minLodPixels>128</minLodPixels>
<maxLodPixels>-1</maxLodPixels>
</Lod>
</Region>
<Link>
<href>../../22/975873/2462763.kml</href>
<viewRefreshMode>onRegion</viewRefreshMode>
</Link>
</NetworkLink>

</Folder>

</Document>
</kml>
