<?xml version="1.0" encoding="utf-8"?>
<kml xmlns="http://www.opengis.net/kml/2.2">
<Document>
<name>21/487920/1231375.kml</name>
<description></description>
<Style><ListStyle id="hideChildren">
<listItemType>checkHideChildren</listItemType>
</ListStyle>
</Style>
<Folder>
<Region>
<LatLonAltBox>
<north>29.919232804842174</north>
<south>29.919084020773919</south>
<east>-96.242809295654297</east>
<west>-96.242980957031250</west>
</LatLonAltBox>
<Lod>
<minLodPixels>128</minLodPixels>
<maxLodPixels>-1</maxLodPixels>
</Lod>
</Region>
<GroundOverlay>
<drawOrder>42</drawOrder>
<Icon>
<href>../../21/487920/1231375.png</href>
</Icon>
<LatLonBox>
<north>29.919232804842174</north>
<south>29.919084020773919</south>
<east>-96.242809295654297</east>
<west>-96.242980957031250</west>
</LatLonBox>
</GroundOverlay>
<NetworkLink>
<name>22/975840/2462750.kml</name>
<Region>
<LatLonAltBox>
<north>29.919158412835845</north>
<south>29.919084020773919</south>
<east>-96.242895126342773</east>
<west>-96.242980957031250</west>
</LatLonAltBox>
<Lod>
<minLodPixels>128</minLodPixels>
<maxLodPixels>-1</maxLodPixels>
</Lod>
</Region>
<Link>
<href>../../22/975840/2462750.kml</href>
<viewRefreshMode>onRegion</viewRefreshMode>
</Link>
</NetworkLink>
<NetworkLink>
<name>22/975841/2462750.kml</name>
<Region>
<LatLonAltBox>
<north>29.919158412835845</north>
<south>29.919084020773919</south>
<east>-96.242809295654297</east>
<west>-96.242895126342773</west>
</LatLonAltBox>
<Lod>
<minLodPixels>128</minLodPixels>
<maxLodPixels>-1</maxLodPixels>
</Lod>
</Region>
<Link>
<href>../../22/975841/2462750.kml</href>
<viewRefreshMode>onRegion</viewRefreshMode>
</Link>
</NetworkLink>
<NetworkLink>
<name>22/975840/2462751.kml</name>
<Region>
<LatLonAltBox>
<north>29.919232804842174</north>
<south>29.919158412835845</south>
<east>-96.242895126342773</east>
<west>-96.242980957031250</west>
</LatLonAltBox>
<Lod>
<minLodPixels>128</minLodPixels>
<maxLodPixels>-1</maxLodPixels>
</Lod>
</Region>
<Link>
<href>../../22/975840/2462751.kml</href>
<viewRefreshMode>onRegion</viewRefreshMode>
</Link>
</NetworkLink>
<NetworkLink>
<name>22/975841/2462751.kml</name>
<Region>
<LatLonAltBox>
<north>29.919232804842174</north>
<south>29.919158412835845</south>
<east>-96.242809295654297</east>
<west>-96.242895126342773</west>
</LatLonAltBox>
<Lod>
<minLodPixels>128</minLodPixels>
<maxLodPixels>-1</maxLodPixels>
</Lod>
</Region>
<Link>
<href>../../22/975841/2462751.kml</href>
<viewRefreshMode>onRegion</viewRefreshMode>
</Link>
</NetworkLink>

</Folder>

</Document>
</kml>
