<?xml version="1.0" encoding="utf-8"?>
<kml xmlns="http://www.opengis.net/kml/2.2">
<Document>
<name>22/975870/2462785.kml</name>
<description></description>
<Style><ListStyle id="hideChildren">
<listItemType>checkHideChildren</listItemType>
</ListStyle>
</Style>
<Folder>
<Region>
<LatLonAltBox>
<north>29.921762099984011</north>
<south>29.921687709867591</south>
<east>-96.240320205688477</east>
<west>-96.240406036376953</west>
</LatLonAltBox>
<Lod>
<minLodPixels>128</minLodPixels>
<maxLodPixels>-1</maxLodPixels>
</Lod>
</Region>
<GroundOverlay>
<drawOrder>44</drawOrder>
<Icon>
<href>../../22/975870/2462785.png</href>
</Icon>
<LatLonBox>
<north>29.921762099984011</north>
<south>29.921687709867591</south>
<east>-96.240320205688477</east>
<west>-96.240406036376953</west>
</LatLonBox>
</GroundOverlay>

</Folder>

</Document>
</kml>
