<?xml version="1.0" encoding="utf-8"?>
<kml xmlns="http://www.opengis.net/kml/2.2">
<Document>
<name>22/975854/2462759.kml</name>
<description></description>
<Style><ListStyle id="hideChildren">
<listItemType>checkHideChildren</listItemType>
</ListStyle>
</Style>
<Folder>
<Region>
<LatLonAltBox>
<north>29.919827938891753</north>
<south>29.919753547330089</south>
<east>-96.241693496704102</east>
<west>-96.241779327392578</west>
</LatLonAltBox>
<Lod>
<minLodPixels>128</minLodPixels>
<maxLodPixels>-1</maxLodPixels>
</Lod>
</Region>
<GroundOverlay>
<drawOrder>44</drawOrder>
<Icon>
<href>../../22/975854/2462759.png</href>
</Icon>
<LatLonBox>
<north>29.919827938891753</north>
<south>29.919753547330089</south>
<east>-96.241693496704102</east>
<west>-96.241779327392578</west>
</LatLonBox>
</GroundOverlay>

</Folder>

</Document>
</kml>
