<?xml version="1.0" encoding="utf-8"?>
<kml xmlns="http://www.opengis.net/kml/2.2">
<Document>
<name>22/975828/2462779.kml</name>
<description></description>
<Style><ListStyle id="hideChildren">
<listItemType>checkHideChildren</listItemType>
</ListStyle>
</Style>
<Folder>
<Region>
<LatLonAltBox>
<north>29.921315758451740</north>
<south>29.921241368001798</south>
<east>-96.243925094604492</east>
<west>-96.244010925292969</west>
</LatLonAltBox>
<Lod>
<minLodPixels>128</minLodPixels>
<maxLodPixels>-1</maxLodPixels>
</Lod>
</Region>
<GroundOverlay>
<drawOrder>44</drawOrder>
<Icon>
<href>../../22/975828/2462779.png</href>
</Icon>
<LatLonBox>
<north>29.921315758451740</north>
<south>29.921241368001798</south>
<east>-96.243925094604492</east>
<west>-96.244010925292969</west>
</LatLonBox>
</GroundOverlay>

</Folder>

</Document>
</kml>
