<?xml version="1.0" encoding="utf-8"?>
<kml xmlns="http://www.opengis.net/kml/2.2">
<Document>
<name>18/60989/153922.kml</name>
<description></description>
<Style><ListStyle id="hideChildren">
<listItemType>checkHideChildren</listItemType>
</ListStyle>
</Style>
<Folder>
<Region>
<LatLonAltBox>
<north>29.920423069383865</north>
<south>29.919232804842174</south>
<east>-96.242980957031250</east>
<west>-96.244354248046875</west>
</LatLonAltBox>
<Lod>
<minLodPixels>128</minLodPixels>
<maxLodPixels>-1</maxLodPixels>
</Lod>
</Region>
<GroundOverlay>
<drawOrder>36</drawOrder>
<Icon>
<href>../../18/60989/153922.png</href>
</Icon>
<LatLonBox>
<north>29.920423069383865</north>
<south>29.919232804842174</south>
<east>-96.242980957031250</east>
<west>-96.244354248046875</west>
</LatLonBox>
</GroundOverlay>
<NetworkLink>
<name>19/121978/307844.kml</name>
<Region>
<LatLonAltBox>
<north>29.919827938891753</north>
<south>29.919232804842174</south>
<east>-96.243667602539062</east>
<west>-96.244354248046875</west>
</LatLonAltBox>
<Lod>
<minLodPixels>128</minLodPixels>
<maxLodPixels>-1</maxLodPixels>
</Lod>
</Region>
<Link>
<href>../../19/121978/307844.kml</href>
<viewRefreshMode>onRegion</viewRefreshMode>
</Link>
</NetworkLink>
<NetworkLink>
<name>19/121979/307844.kml</name>
<Region>
<LatLonAltBox>
<north>29.919827938891753</north>
<south>29.919232804842174</south>
<east>-96.242980957031250</east>
<west>-96.243667602539062</west>
</LatLonAltBox>
<Lod>
<minLodPixels>128</minLodPixels>
<maxLodPixels>-1</maxLodPixels>
</Lod>
</Region>
<Link>
<href>../../19/121979/307844.kml</href>
<viewRefreshMode>onRegion</viewRefreshMode>
</Link>
</NetworkLink>
<NetworkLink>
<name>19/121978/307845.kml</name>
<Region>
<LatLonAltBox>
<north>29.920423069383865</north>
<south>29.919827938891753</south>
<east>-96.243667602539062</east>
<west>-96.244354248046875</west>
</LatLonAltBox>
<Lod>
<minLodPixels>128</minLodPixels>
<maxLodPixels>-1</maxLodPixels>
</Lod>
</Region>
<Link>
<href>../../19/121978/307845.kml</href>
<viewRefreshMode>onRegion</viewRefreshMode>
</Link>
</NetworkLink>
<NetworkLink>
<name>19/121979/307845.kml</name>
<Region>
<LatLonAltBox>
<north>29.920423069383865</north>
<south>29.919827938891753</south>
<east>-96.242980957031250</east>
<west>-96.243667602539062</west>
</LatLonAltBox>
<Lod>
<minLodPixels>128</minLodPixels>
<maxLodPixels>-1</maxLodPixels>
</Lod>
</Region>
<Link>
<href>../../19/121979/307845.kml</href>
<viewRefreshMode>onRegion</viewRefreshMode>
</Link>
</NetworkLink>

</Folder>

</Document>
</kml>
