<?xml version="1.0" encoding="utf-8"?>
<kml xmlns="http://www.opengis.net/kml/2.2">
<Document>
<name>20/243967/615697.kml</name>
<description></description>
<Style><ListStyle id="hideChildren">
<listItemType>checkHideChildren</listItemType>
</ListStyle>
</Style>
<Folder>
<Region>
<LatLonAltBox>
<north>29.922208439515099</north>
<south>29.921910880050032</south>
<east>-96.240234375000000</east>
<west>-96.240577697753906</west>
</LatLonAltBox>
<Lod>
<minLodPixels>128</minLodPixels>
<maxLodPixels>-1</maxLodPixels>
</Lod>
</Region>
<GroundOverlay>
<drawOrder>40</drawOrder>
<Icon>
<href>../../20/243967/615697.png</href>
</Icon>
<LatLonBox>
<north>29.922208439515099</north>
<south>29.921910880050032</south>
<east>-96.240234375000000</east>
<west>-96.240577697753906</west>
</LatLonBox>
</GroundOverlay>
<NetworkLink>
<name>21/487934/1231394.kml</name>
<Region>
<LatLonAltBox>
<north>29.922059659893744</north>
<south>29.921910880050032</south>
<east>-96.240406036376953</east>
<west>-96.240577697753906</west>
</LatLonAltBox>
<Lod>
<minLodPixels>128</minLodPixels>
<maxLodPixels>-1</maxLodPixels>
</Lod>
</Region>
<Link>
<href>../../21/487934/1231394.kml</href>
<viewRefreshMode>onRegion</viewRefreshMode>
</Link>
</NetworkLink>
<NetworkLink>
<name>21/487935/1231394.kml</name>
<Region>
<LatLonAltBox>
<north>29.922059659893744</north>
<south>29.921910880050032</south>
<east>-96.240234375000000</east>
<west>-96.240406036376953</west>
</LatLonAltBox>
<Lod>
<minLodPixels>128</minLodPixels>
<maxLodPixels>-1</maxLodPixels>
</Lod>
</Region>
<Link>
<href>../../21/487935/1231394.kml</href>
<viewRefreshMode>onRegion</viewRefreshMode>
</Link>
</NetworkLink>
<NetworkLink>
<name>21/487934/1231395.kml</name>
<Region>
<LatLonAltBox>
<north>29.922208439515099</north>
<south>29.922059659893744</south>
<east>-96.240406036376953</east>
<west>-96.240577697753906</west>
</LatLonAltBox>
<Lod>
<minLodPixels>128</minLodPixels>
<maxLodPixels>-1</maxLodPixels>
</Lod>
</Region>
<Link>
<href>../../21/487934/1231395.kml</href>
<viewRefreshMode>onRegion</viewRefreshMode>
</Link>
</NetworkLink>
<NetworkLink>
<name>21/487935/1231395.kml</name>
<Region>
<LatLonAltBox>
<north>29.922208439515099</north>
<south>29.922059659893744</south>
<east>-96.240234375000000</east>
<west>-96.240406036376953</west>
</LatLonAltBox>
<Lod>
<minLodPixels>128</minLodPixels>
<maxLodPixels>-1</maxLodPixels>
</Lod>
</Region>
<Link>
<href>../../21/487935/1231395.kml</href>
<viewRefreshMode>onRegion</viewRefreshMode>
</Link>
</NetworkLink>

</Folder>

</Document>
</kml>
