<?xml version="1.0" encoding="utf-8"?>
<kml xmlns="http://www.opengis.net/kml/2.2">
<Document>
<name>21/487918/1231372.kml</name>
<description></description>
<Style><ListStyle id="hideChildren">
<listItemType>checkHideChildren</listItemType>
</ListStyle>
</Style>
<Folder>
<Region>
<LatLonAltBox>
<north>29.918786451970412</north>
<south>29.918637667235185</south>
<east>-96.243152618408203</east>
<west>-96.243324279785156</west>
</LatLonAltBox>
<Lod>
<minLodPixels>128</minLodPixels>
<maxLodPixels>-1</maxLodPixels>
</Lod>
</Region>
<GroundOverlay>
<drawOrder>42</drawOrder>
<Icon>
<href>../../21/487918/1231372.png</href>
</Icon>
<LatLonBox>
<north>29.918786451970412</north>
<south>29.918637667235185</south>
<east>-96.243152618408203</east>
<west>-96.243324279785156</west>
</LatLonBox>
</GroundOverlay>
<NetworkLink>
<name>22/975836/2462744.kml</name>
<Region>
<LatLonAltBox>
<north>29.918712059630611</north>
<south>29.918637667235185</south>
<east>-96.243238449096680</east>
<west>-96.243324279785156</west>
</LatLonAltBox>
<Lod>
<minLodPixels>128</minLodPixels>
<maxLodPixels>-1</maxLodPixels>
</Lod>
</Region>
<Link>
<href>../../22/975836/2462744.kml</href>
<viewRefreshMode>onRegion</viewRefreshMode>
</Link>
</NetworkLink>
<NetworkLink>
<name>22/975837/2462744.kml</name>
<Region>
<LatLonAltBox>
<north>29.918712059630611</north>
<south>29.918637667235185</south>
<east>-96.243152618408203</east>
<west>-96.243238449096680</west>
</LatLonAltBox>
<Lod>
<minLodPixels>128</minLodPixels>
<maxLodPixels>-1</maxLodPixels>
</Lod>
</Region>
<Link>
<href>../../22/975837/2462744.kml</href>
<viewRefreshMode>onRegion</viewRefreshMode>
</Link>
</NetworkLink>
<NetworkLink>
<name>22/975836/2462745.kml</name>
<Region>
<LatLonAltBox>
<north>29.918786451970412</north>
<south>29.918712059630611</south>
<east>-96.243238449096680</east>
<west>-96.243324279785156</west>
</LatLonAltBox>
<Lod>
<minLodPixels>128</minLodPixels>
<maxLodPixels>-1</maxLodPixels>
</Lod>
</Region>
<Link>
<href>../../22/975836/2462745.kml</href>
<viewRefreshMode>onRegion</viewRefreshMode>
</Link>
</NetworkLink>
<NetworkLink>
<name>22/975837/2462745.kml</name>
<Region>
<LatLonAltBox>
<north>29.918786451970412</north>
<south>29.918712059630611</south>
<east>-96.243152618408203</east>
<west>-96.243238449096680</west>
</LatLonAltBox>
<Lod>
<minLodPixels>128</minLodPixels>
<maxLodPixels>-1</maxLodPixels>
</Lod>
</Region>
<Link>
<href>../../22/975837/2462745.kml</href>
<viewRefreshMode>onRegion</viewRefreshMode>
</Link>
</NetworkLink>

</Folder>

</Document>
</kml>
