<?xml version="1.0" encoding="utf-8"?>
<kml xmlns="http://www.opengis.net/kml/2.2">
<Document>
<name>22/975834/2462749.kml</name>
<description></description>
<Style><ListStyle id="hideChildren">
<listItemType>checkHideChildren</listItemType>
</ListStyle>
</Style>
<Folder>
<Region>
<LatLonAltBox>
<north>29.919084020773919</north>
<south>29.919009628656426</south>
<east>-96.243410110473633</east>
<west>-96.243495941162109</west>
</LatLonAltBox>
<Lod>
<minLodPixels>128</minLodPixels>
<maxLodPixels>-1</maxLodPixels>
</Lod>
</Region>
<GroundOverlay>
<drawOrder>44</drawOrder>
<Icon>
<href>../../22/975834/2462749.png</href>
</Icon>
<LatLonBox>
<north>29.919084020773919</north>
<south>29.919009628656426</south>
<east>-96.243410110473633</east>
<west>-96.243495941162109</west>
</LatLonBox>
</GroundOverlay>

</Folder>

</Document>
</kml>
