<?xml version="1.0" encoding="utf-8"?>
<kml xmlns="http://www.opengis.net/kml/2.2">
<Document>
<name>22/975877/2462750.kml</name>
<description></description>
<Style><ListStyle id="hideChildren">
<listItemType>checkHideChildren</listItemType>
</ListStyle>
</Style>
<Folder>
<Region>
<LatLonAltBox>
<north>29.919158412835845</north>
<south>29.919084020773919</south>
<east>-96.239719390869141</east>
<west>-96.239805221557617</west>
</LatLonAltBox>
<Lod>
<minLodPixels>128</minLodPixels>
<maxLodPixels>-1</maxLodPixels>
</Lod>
</Region>
<GroundOverlay>
<drawOrder>44</drawOrder>
<Icon>
<href>../../22/975877/2462750.png</href>
</Icon>
<LatLonBox>
<north>29.919158412835845</north>
<south>29.919084020773919</south>
<east>-96.239719390869141</east>
<west>-96.239805221557617</west>
</LatLonBox>
</GroundOverlay>

</Folder>

</Document>
</kml>
