<?xml version="1.0" encoding="utf-8"?>
<kml xmlns="http://www.opengis.net/kml/2.2">
<Document>
<name>22/975841/2462732.kml</name>
<description></description>
<Style><ListStyle id="hideChildren">
<listItemType>checkHideChildren</listItemType>
</ListStyle>
</Style>
<Folder>
<Region>
<LatLonAltBox>
<north>29.917819347217055</north>
<south>29.917744954154632</south>
<east>-96.242809295654297</east>
<west>-96.242895126342773</west>
</LatLonAltBox>
<Lod>
<minLodPixels>128</minLodPixels>
<maxLodPixels>-1</maxLodPixels>
</Lod>
</Region>
<GroundOverlay>
<drawOrder>44</drawOrder>
<Icon>
<href>../../22/975841/2462732.png</href>
</Icon>
<LatLonBox>
<north>29.917819347217055</north>
<south>29.917744954154632</south>
<east>-96.242809295654297</east>
<west>-96.242895126342773</west>
</LatLonBox>
</GroundOverlay>

</Folder>

</Document>
</kml>
