<?xml version="1.0" encoding="utf-8"?>
<kml xmlns="http://www.opengis.net/kml/2.2">
<Document>
<name>19/121976/307843.kml</name>
<description></description>
<Style><ListStyle id="hideChildren">
<listItemType>checkHideChildren</listItemType>
</ListStyle>
</Style>
<Folder>
<Region>
<LatLonAltBox>
<north>29.919232804842174</north>
<south>29.918637667235185</south>
<east>-96.245040893554688</east>
<west>-96.245727539062500</west>
</LatLonAltBox>
<Lod>
<minLodPixels>128</minLodPixels>
<maxLodPixels>-1</maxLodPixels>
</Lod>
</Region>
<GroundOverlay>
<drawOrder>38</drawOrder>
<Icon>
<href>../../19/121976/307843.png</href>
</Icon>
<LatLonBox>
<north>29.919232804842174</north>
<south>29.918637667235185</south>
<east>-96.245040893554688</east>
<west>-96.245727539062500</west>
</LatLonBox>
</GroundOverlay>
<NetworkLink>
<name>20/243953/615686.kml</name>
<Region>
<LatLonAltBox>
<north>29.918935236483332</north>
<south>29.918637667235185</south>
<east>-96.245040893554688</east>
<west>-96.245384216308594</west>
</LatLonAltBox>
<Lod>
<minLodPixels>128</minLodPixels>
<maxLodPixels>-1</maxLodPixels>
</Lod>
</Region>
<Link>
<href>../../20/243953/615686.kml</href>
<viewRefreshMode>onRegion</viewRefreshMode>
</Link>
</NetworkLink>
<NetworkLink>
<name>20/243953/615687.kml</name>
<Region>
<LatLonAltBox>
<north>29.919232804842174</north>
<south>29.918935236483332</south>
<east>-96.245040893554688</east>
<west>-96.245384216308594</west>
</LatLonAltBox>
<Lod>
<minLodPixels>128</minLodPixels>
<maxLodPixels>-1</maxLodPixels>
</Lod>
</Region>
<Link>
<href>../../20/243953/615687.kml</href>
<viewRefreshMode>onRegion</viewRefreshMode>
</Link>
</NetworkLink>

</Folder>

</Document>
</kml>
