<?xml version="1.0" encoding="utf-8"?>
<kml xmlns="http://www.opengis.net/kml/2.2">
<Document>
<name>22/975842/2462768.kml</name>
<description></description>
<Style><ListStyle id="hideChildren">
<listItemType>checkHideChildren</listItemType>
</ListStyle>
</Style>
<Folder>
<Region>
<LatLonAltBox>
<north>29.920497460445265</north>
<south>29.920423069383865</south>
<east>-96.242723464965820</east>
<west>-96.242809295654297</west>
</LatLonAltBox>
<Lod>
<minLodPixels>128</minLodPixels>
<maxLodPixels>-1</maxLodPixels>
</Lod>
</Region>
<GroundOverlay>
<drawOrder>44</drawOrder>
<Icon>
<href>../../22/975842/2462768.png</href>
</Icon>
<LatLonBox>
<north>29.920497460445265</north>
<south>29.920423069383865</south>
<east>-96.242723464965820</east>
<west>-96.242809295654297</west>
</LatLonBox>
</GroundOverlay>

</Folder>

</Document>
</kml>
