<?xml version="1.0" encoding="utf-8"?>
<kml xmlns="http://www.opengis.net/kml/2.2">
<Document>
<name>22/975878/2462737.kml</name>
<description></description>
<Style><ListStyle id="hideChildren">
<listItemType>checkHideChildren</listItemType>
</ListStyle>
</Style>
<Folder>
<Region>
<LatLonAltBox>
<north>29.918191311695395</north>
<south>29.918116918910901</south>
<east>-96.239633560180664</east>
<west>-96.239719390869141</west>
</LatLonAltBox>
<Lod>
<minLodPixels>128</minLodPixels>
<maxLodPixels>-1</maxLodPixels>
</Lod>
</Region>
<GroundOverlay>
<drawOrder>44</drawOrder>
<Icon>
<href>../../22/975878/2462737.png</href>
</Icon>
<LatLonBox>
<north>29.918191311695395</north>
<south>29.918116918910901</south>
<east>-96.239633560180664</east>
<west>-96.239719390869141</west>
</LatLonBox>
</GroundOverlay>

</Folder>

</Document>
</kml>
