<?xml version="1.0" encoding="utf-8"?>
<kml xmlns="http://www.opengis.net/kml/2.2">
<Document>
<name>21/487924/1231378.kml</name>
<description></description>
<Style><ListStyle id="hideChildren">
<listItemType>checkHideChildren</listItemType>
</ListStyle>
</Style>
<Folder>
<Region>
<LatLonAltBox>
<north>29.919679155712856</north>
<south>29.919530372311630</south>
<east>-96.242122650146484</east>
<west>-96.242294311523438</west>
</LatLonAltBox>
<Lod>
<minLodPixels>128</minLodPixels>
<maxLodPixels>-1</maxLodPixels>
</Lod>
</Region>
<GroundOverlay>
<drawOrder>42</drawOrder>
<Icon>
<href>../../21/487924/1231378.png</href>
</Icon>
<LatLonBox>
<north>29.919679155712856</north>
<south>29.919530372311630</south>
<east>-96.242122650146484</east>
<west>-96.242294311523438</west>
</LatLonBox>
</GroundOverlay>
<NetworkLink>
<name>22/975848/2462756.kml</name>
<Region>
<LatLonAltBox>
<north>29.919604764040027</north>
<south>29.919530372311630</south>
<east>-96.242208480834961</east>
<west>-96.242294311523438</west>
</LatLonAltBox>
<Lod>
<minLodPixels>128</minLodPixels>
<maxLodPixels>-1</maxLodPixels>
</Lod>
</Region>
<Link>
<href>../../22/975848/2462756.kml</href>
<viewRefreshMode>onRegion</viewRefreshMode>
</Link>
</NetworkLink>
<NetworkLink>
<name>22/975849/2462756.kml</name>
<Region>
<LatLonAltBox>
<north>29.919604764040027</north>
<south>29.919530372311630</south>
<east>-96.242122650146484</east>
<west>-96.242208480834961</west>
</LatLonAltBox>
<Lod>
<minLodPixels>128</minLodPixels>
<maxLodPixels>-1</maxLodPixels>
</Lod>
</Region>
<Link>
<href>../../22/975849/2462756.kml</href>
<viewRefreshMode>onRegion</viewRefreshMode>
</Link>
</NetworkLink>
<NetworkLink>
<name>22/975848/2462757.kml</name>
<Region>
<LatLonAltBox>
<north>29.919679155712856</north>
<south>29.919604764040027</south>
<east>-96.242208480834961</east>
<west>-96.242294311523438</west>
</LatLonAltBox>
<Lod>
<minLodPixels>128</minLodPixels>
<maxLodPixels>-1</maxLodPixels>
</Lod>
</Region>
<Link>
<href>../../22/975848/2462757.kml</href>
<viewRefreshMode>onRegion</viewRefreshMode>
</Link>
</NetworkLink>
<NetworkLink>
<name>22/975849/2462757.kml</name>
<Region>
<LatLonAltBox>
<north>29.919679155712856</north>
<south>29.919604764040027</south>
<east>-96.242122650146484</east>
<west>-96.242208480834961</west>
</LatLonAltBox>
<Lod>
<minLodPixels>128</minLodPixels>
<maxLodPixels>-1</maxLodPixels>
</Lod>
</Region>
<Link>
<href>../../22/975849/2462757.kml</href>
<viewRefreshMode>onRegion</viewRefreshMode>
</Link>
</NetworkLink>

</Folder>

</Document>
</kml>
