<?xml version="1.0" encoding="utf-8"?>
<kml xmlns="http://www.opengis.net/kml/2.2">
<Document>
<name>19/121981/307840.kml</name>
<description></description>
<Style><ListStyle id="hideChildren">
<listItemType>checkHideChildren</listItemType>
</ListStyle>
</Style>
<Folder>
<Region>
<LatLonAltBox>
<north>29.917447381349145</north>
<south>29.916852233070173</south>
<east>-96.241607666015625</east>
<west>-96.242294311523438</west>
</LatLonAltBox>
<Lod>
<minLodPixels>128</minLodPixels>
<maxLodPixels>-1</maxLodPixels>
</Lod>
</Region>
<GroundOverlay>
<drawOrder>38</drawOrder>
<Icon>
<href>../../19/121981/307840.png</href>
</Icon>
<LatLonBox>
<north>29.917447381349145</north>
<south>29.916852233070173</south>
<east>-96.241607666015625</east>
<west>-96.242294311523438</west>
</LatLonBox>
</GroundOverlay>
<NetworkLink>
<name>20/243962/615681.kml</name>
<Region>
<LatLonAltBox>
<north>29.917447381349145</north>
<south>29.917149807654301</south>
<east>-96.241950988769531</east>
<west>-96.242294311523438</west>
</LatLonAltBox>
<Lod>
<minLodPixels>128</minLodPixels>
<maxLodPixels>-1</maxLodPixels>
</Lod>
</Region>
<Link>
<href>../../20/243962/615681.kml</href>
<viewRefreshMode>onRegion</viewRefreshMode>
</Link>
</NetworkLink>
<NetworkLink>
<name>20/243963/615681.kml</name>
<Region>
<LatLonAltBox>
<north>29.917447381349145</north>
<south>29.917149807654301</south>
<east>-96.241607666015625</east>
<west>-96.241950988769531</west>
</LatLonAltBox>
<Lod>
<minLodPixels>128</minLodPixels>
<maxLodPixels>-1</maxLodPixels>
</Lod>
</Region>
<Link>
<href>../../20/243963/615681.kml</href>
<viewRefreshMode>onRegion</viewRefreshMode>
</Link>
</NetworkLink>

</Folder>

</Document>
</kml>
