<?xml version="1.0" encoding="utf-8"?>
<kml xmlns="http://www.opengis.net/kml/2.2">
<Document>
<name>22/975815/2462798.kml</name>
<description></description>
<Style><ListStyle id="hideChildren">
<listItemType>checkHideChildren</listItemType>
</ListStyle>
</Style>
<Folder>
<Region>
<LatLonAltBox>
<north>29.922729166438806</north>
<south>29.922654777045036</south>
<east>-96.245040893554688</east>
<west>-96.245126724243164</west>
</LatLonAltBox>
<Lod>
<minLodPixels>128</minLodPixels>
<maxLodPixels>-1</maxLodPixels>
</Lod>
</Region>
<GroundOverlay>
<drawOrder>44</drawOrder>
<Icon>
<href>../../22/975815/2462798.png</href>
</Icon>
<LatLonBox>
<north>29.922729166438806</north>
<south>29.922654777045036</south>
<east>-96.245040893554688</east>
<west>-96.245126724243164</west>
</LatLonBox>
</GroundOverlay>

</Folder>

</Document>
</kml>
