<?xml version="1.0" encoding="utf-8"?>
<kml xmlns="http://www.opengis.net/kml/2.2">
<Document>
<name>21/487908/1231374.kml</name>
<description></description>
<Style><ListStyle id="hideChildren">
<listItemType>checkHideChildren</listItemType>
</ListStyle>
</Style>
<Folder>
<Region>
<LatLonAltBox>
<north>29.919084020773919</north>
<south>29.918935236483332</south>
<east>-96.244869232177734</east>
<west>-96.245040893554688</west>
</LatLonAltBox>
<Lod>
<minLodPixels>128</minLodPixels>
<maxLodPixels>-1</maxLodPixels>
</Lod>
</Region>
<GroundOverlay>
<drawOrder>42</drawOrder>
<Icon>
<href>../../21/487908/1231374.png</href>
</Icon>
<LatLonBox>
<north>29.919084020773919</north>
<south>29.918935236483332</south>
<east>-96.244869232177734</east>
<west>-96.245040893554688</west>
</LatLonBox>
</GroundOverlay>
<NetworkLink>
<name>22/975816/2462748.kml</name>
<Region>
<LatLonAltBox>
<north>29.919009628656426</north>
<south>29.918935236483332</south>
<east>-96.244955062866211</east>
<west>-96.245040893554688</west>
</LatLonAltBox>
<Lod>
<minLodPixels>128</minLodPixels>
<maxLodPixels>-1</maxLodPixels>
</Lod>
</Region>
<Link>
<href>../../22/975816/2462748.kml</href>
<viewRefreshMode>onRegion</viewRefreshMode>
</Link>
</NetworkLink>
<NetworkLink>
<name>22/975817/2462748.kml</name>
<Region>
<LatLonAltBox>
<north>29.919009628656426</north>
<south>29.918935236483332</south>
<east>-96.244869232177734</east>
<west>-96.244955062866211</west>
</LatLonAltBox>
<Lod>
<minLodPixels>128</minLodPixels>
<maxLodPixels>-1</maxLodPixels>
</Lod>
</Region>
<Link>
<href>../../22/975817/2462748.kml</href>
<viewRefreshMode>onRegion</viewRefreshMode>
</Link>
</NetworkLink>
<NetworkLink>
<name>22/975816/2462749.kml</name>
<Region>
<LatLonAltBox>
<north>29.919084020773919</north>
<south>29.919009628656426</south>
<east>-96.244955062866211</east>
<west>-96.245040893554688</west>
</LatLonAltBox>
<Lod>
<minLodPixels>128</minLodPixels>
<maxLodPixels>-1</maxLodPixels>
</Lod>
</Region>
<Link>
<href>../../22/975816/2462749.kml</href>
<viewRefreshMode>onRegion</viewRefreshMode>
</Link>
</NetworkLink>
<NetworkLink>
<name>22/975817/2462749.kml</name>
<Region>
<LatLonAltBox>
<north>29.919084020773919</north>
<south>29.919009628656426</south>
<east>-96.244869232177734</east>
<west>-96.244955062866211</west>
</LatLonAltBox>
<Lod>
<minLodPixels>128</minLodPixels>
<maxLodPixels>-1</maxLodPixels>
</Lod>
</Region>
<Link>
<href>../../22/975817/2462749.kml</href>
<viewRefreshMode>onRegion</viewRefreshMode>
</Link>
</NetworkLink>

</Folder>

</Document>
</kml>
