<?xml version="1.0" encoding="utf-8"?>
<kml xmlns="http://www.opengis.net/kml/2.2">
<Document>
<name>21/487929/1231368.kml</name>
<description></description>
<Style><ListStyle id="hideChildren">
<listItemType>checkHideChildren</listItemType>
</ListStyle>
</Style>
<Folder>
<Region>
<LatLonAltBox>
<north>29.918191311695395</north>
<south>29.918042526070831</south>
<east>-96.241264343261719</east>
<west>-96.241436004638672</west>
</LatLonAltBox>
<Lod>
<minLodPixels>128</minLodPixels>
<maxLodPixels>-1</maxLodPixels>
</Lod>
</Region>
<GroundOverlay>
<drawOrder>42</drawOrder>
<Icon>
<href>../../21/487929/1231368.png</href>
</Icon>
<LatLonBox>
<north>29.918191311695395</north>
<south>29.918042526070831</south>
<east>-96.241264343261719</east>
<west>-96.241436004638672</west>
</LatLonBox>
</GroundOverlay>
<NetworkLink>
<name>22/975858/2462736.kml</name>
<Region>
<LatLonAltBox>
<north>29.918116918910901</north>
<south>29.918042526070831</south>
<east>-96.241350173950195</east>
<west>-96.241436004638672</west>
</LatLonAltBox>
<Lod>
<minLodPixels>128</minLodPixels>
<maxLodPixels>-1</maxLodPixels>
</Lod>
</Region>
<Link>
<href>../../22/975858/2462736.kml</href>
<viewRefreshMode>onRegion</viewRefreshMode>
</Link>
</NetworkLink>
<NetworkLink>
<name>22/975859/2462736.kml</name>
<Region>
<LatLonAltBox>
<north>29.918116918910901</north>
<south>29.918042526070831</south>
<east>-96.241264343261719</east>
<west>-96.241350173950195</west>
</LatLonAltBox>
<Lod>
<minLodPixels>128</minLodPixels>
<maxLodPixels>-1</maxLodPixels>
</Lod>
</Region>
<Link>
<href>../../22/975859/2462736.kml</href>
<viewRefreshMode>onRegion</viewRefreshMode>
</Link>
</NetworkLink>
<NetworkLink>
<name>22/975858/2462737.kml</name>
<Region>
<LatLonAltBox>
<north>29.918191311695395</north>
<south>29.918116918910901</south>
<east>-96.241350173950195</east>
<west>-96.241436004638672</west>
</LatLonAltBox>
<Lod>
<minLodPixels>128</minLodPixels>
<maxLodPixels>-1</maxLodPixels>
</Lod>
</Region>
<Link>
<href>../../22/975858/2462737.kml</href>
<viewRefreshMode>onRegion</viewRefreshMode>
</Link>
</NetworkLink>
<NetworkLink>
<name>22/975859/2462737.kml</name>
<Region>
<LatLonAltBox>
<north>29.918191311695395</north>
<south>29.918116918910901</south>
<east>-96.241264343261719</east>
<west>-96.241350173950195</west>
</LatLonAltBox>
<Lod>
<minLodPixels>128</minLodPixels>
<maxLodPixels>-1</maxLodPixels>
</Lod>
</Region>
<Link>
<href>../../22/975859/2462737.kml</href>
<viewRefreshMode>onRegion</viewRefreshMode>
</Link>
</NetworkLink>

</Folder>

</Document>
</kml>
