<?xml version="1.0" encoding="utf-8"?>
<kml xmlns="http://www.opengis.net/kml/2.2">
<Document>
<name>22/975840/2462781.kml</name>
<description></description>
<Style><ListStyle id="hideChildren">
<listItemType>checkHideChildren</listItemType>
</ListStyle>
</Style>
<Folder>
<Region>
<LatLonAltBox>
<north>29.921464539184839</north>
<south>29.921390148846086</south>
<east>-96.242895126342773</east>
<west>-96.242980957031250</west>
</LatLonAltBox>
<Lod>
<minLodPixels>128</minLodPixels>
<maxLodPixels>-1</maxLodPixels>
</Lod>
</Region>
<GroundOverlay>
<drawOrder>44</drawOrder>
<Icon>
<href>../../22/975840/2462781.png</href>
</Icon>
<LatLonBox>
<north>29.921464539184839</north>
<south>29.921390148846086</south>
<east>-96.242895126342773</east>
<west>-96.242980957031250</west>
</LatLonBox>
</GroundOverlay>

</Folder>

</Document>
</kml>
