<?xml version="1.0" encoding="utf-8"?>
<kml xmlns="http://www.opengis.net/kml/2.2">
<Document>
<name>22/975856/2462727.kml</name>
<description></description>
<Style><ListStyle id="hideChildren">
<listItemType>checkHideChildren</listItemType>
</ListStyle>
</Style>
<Folder>
<Region>
<LatLonAltBox>
<north>29.917447381349145</north>
<south>29.917372988008815</south>
<east>-96.241521835327148</east>
<west>-96.241607666015625</west>
</LatLonAltBox>
<Lod>
<minLodPixels>128</minLodPixels>
<maxLodPixels>-1</maxLodPixels>
</Lod>
</Region>
<GroundOverlay>
<drawOrder>44</drawOrder>
<Icon>
<href>../../22/975856/2462727.png</href>
</Icon>
<LatLonBox>
<north>29.917447381349145</north>
<south>29.917372988008815</south>
<east>-96.241521835327148</east>
<west>-96.241607666015625</west>
</LatLonBox>
</GroundOverlay>

</Folder>

</Document>
</kml>
