<?xml version="1.0" encoding="utf-8"?>
<kml xmlns="http://www.opengis.net/kml/2.2">
<Document>
<name>22/975837/2462751.kml</name>
<description></description>
<Style><ListStyle id="hideChildren">
<listItemType>checkHideChildren</listItemType>
</ListStyle>
</Style>
<Folder>
<Region>
<LatLonAltBox>
<north>29.919232804842174</north>
<south>29.919158412835845</south>
<east>-96.243152618408203</east>
<west>-96.243238449096680</west>
</LatLonAltBox>
<Lod>
<minLodPixels>128</minLodPixels>
<maxLodPixels>-1</maxLodPixels>
</Lod>
</Region>
<GroundOverlay>
<drawOrder>44</drawOrder>
<Icon>
<href>../../22/975837/2462751.png</href>
</Icon>
<LatLonBox>
<north>29.919232804842174</north>
<south>29.919158412835845</south>
<east>-96.243152618408203</east>
<west>-96.243238449096680</west>
</LatLonBox>
</GroundOverlay>

</Folder>

</Document>
</kml>
