<?xml version="1.0" encoding="utf-8"?>
<kml xmlns="http://www.opengis.net/kml/2.2">
<Document>
<name>20/243953/615682.kml</name>
<description></description>
<Style><ListStyle id="hideChildren">
<listItemType>checkHideChildren</listItemType>
</ListStyle>
</Style>
<Folder>
<Region>
<LatLonAltBox>
<north>29.917744954154632</north>
<south>29.917447381349145</south>
<east>-96.245040893554688</east>
<west>-96.245384216308594</west>
</LatLonAltBox>
<Lod>
<minLodPixels>128</minLodPixels>
<maxLodPixels>-1</maxLodPixels>
</Lod>
</Region>
<GroundOverlay>
<drawOrder>40</drawOrder>
<Icon>
<href>../../20/243953/615682.png</href>
</Icon>
<LatLonBox>
<north>29.917744954154632</north>
<south>29.917447381349145</south>
<east>-96.245040893554688</east>
<west>-96.245384216308594</west>
</LatLonBox>
</GroundOverlay>
<NetworkLink>
<name>21/487906/1231364.kml</name>
<Region>
<LatLonAltBox>
<north>29.917596167863042</north>
<south>29.917447381349145</south>
<east>-96.245212554931641</east>
<west>-96.245384216308594</west>
</LatLonAltBox>
<Lod>
<minLodPixels>128</minLodPixels>
<maxLodPixels>-1</maxLodPixels>
</Lod>
</Region>
<Link>
<href>../../21/487906/1231364.kml</href>
<viewRefreshMode>onRegion</viewRefreshMode>
</Link>
</NetworkLink>
<NetworkLink>
<name>21/487907/1231364.kml</name>
<Region>
<LatLonAltBox>
<north>29.917596167863042</north>
<south>29.917447381349145</south>
<east>-96.245040893554688</east>
<west>-96.245212554931641</west>
</LatLonAltBox>
<Lod>
<minLodPixels>128</minLodPixels>
<maxLodPixels>-1</maxLodPixels>
</Lod>
</Region>
<Link>
<href>../../21/487907/1231364.kml</href>
<viewRefreshMode>onRegion</viewRefreshMode>
</Link>
</NetworkLink>
<NetworkLink>
<name>21/487906/1231365.kml</name>
<Region>
<LatLonAltBox>
<north>29.917744954154632</north>
<south>29.917596167863042</south>
<east>-96.245212554931641</east>
<west>-96.245384216308594</west>
</LatLonAltBox>
<Lod>
<minLodPixels>128</minLodPixels>
<maxLodPixels>-1</maxLodPixels>
</Lod>
</Region>
<Link>
<href>../../21/487906/1231365.kml</href>
<viewRefreshMode>onRegion</viewRefreshMode>
</Link>
</NetworkLink>
<NetworkLink>
<name>21/487907/1231365.kml</name>
<Region>
<LatLonAltBox>
<north>29.917744954154632</north>
<south>29.917596167863042</south>
<east>-96.245040893554688</east>
<west>-96.245212554931641</west>
</LatLonAltBox>
<Lod>
<minLodPixels>128</minLodPixels>
<maxLodPixels>-1</maxLodPixels>
</Lod>
</Region>
<Link>
<href>../../21/487907/1231365.kml</href>
<viewRefreshMode>onRegion</viewRefreshMode>
</Link>
</NetworkLink>

</Folder>

</Document>
</kml>
