<?xml version="1.0" encoding="utf-8"?>
<kml xmlns="http://www.opengis.net/kml/2.2">
<Document>
<name>21/487916/1231383.kml</name>
<description></description>
<Style><ListStyle id="hideChildren">
<listItemType>checkHideChildren</listItemType>
</ListStyle>
</Style>
<Folder>
<Region>
<LatLonAltBox>
<north>29.920423069383865</north>
<south>29.920274287094358</south>
<east>-96.243495941162109</east>
<west>-96.243667602539062</west>
</LatLonAltBox>
<Lod>
<minLodPixels>128</minLodPixels>
<maxLodPixels>-1</maxLodPixels>
</Lod>
</Region>
<GroundOverlay>
<drawOrder>42</drawOrder>
<Icon>
<href>../../21/487916/1231383.png</href>
</Icon>
<LatLonBox>
<north>29.920423069383865</north>
<south>29.920274287094358</south>
<east>-96.243495941162109</east>
<west>-96.243667602539062</west>
</LatLonBox>
</GroundOverlay>
<NetworkLink>
<name>22/975832/2462766.kml</name>
<Region>
<LatLonAltBox>
<north>29.920348678266897</north>
<south>29.920274287094358</south>
<east>-96.243581771850586</east>
<west>-96.243667602539062</west>
</LatLonAltBox>
<Lod>
<minLodPixels>128</minLodPixels>
<maxLodPixels>-1</maxLodPixels>
</Lod>
</Region>
<Link>
<href>../../22/975832/2462766.kml</href>
<viewRefreshMode>onRegion</viewRefreshMode>
</Link>
</NetworkLink>
<NetworkLink>
<name>22/975833/2462766.kml</name>
<Region>
<LatLonAltBox>
<north>29.920348678266897</north>
<south>29.920274287094358</south>
<east>-96.243495941162109</east>
<west>-96.243581771850586</west>
</LatLonAltBox>
<Lod>
<minLodPixels>128</minLodPixels>
<maxLodPixels>-1</maxLodPixels>
</Lod>
</Region>
<Link>
<href>../../22/975833/2462766.kml</href>
<viewRefreshMode>onRegion</viewRefreshMode>
</Link>
</NetworkLink>
<NetworkLink>
<name>22/975832/2462767.kml</name>
<Region>
<LatLonAltBox>
<north>29.920423069383865</north>
<south>29.920348678266897</south>
<east>-96.243581771850586</east>
<west>-96.243667602539062</west>
</LatLonAltBox>
<Lod>
<minLodPixels>128</minLodPixels>
<maxLodPixels>-1</maxLodPixels>
</Lod>
</Region>
<Link>
<href>../../22/975832/2462767.kml</href>
<viewRefreshMode>onRegion</viewRefreshMode>
</Link>
</NetworkLink>
<NetworkLink>
<name>22/975833/2462767.kml</name>
<Region>
<LatLonAltBox>
<north>29.920423069383865</north>
<south>29.920348678266897</south>
<east>-96.243495941162109</east>
<west>-96.243581771850586</west>
</LatLonAltBox>
<Lod>
<minLodPixels>128</minLodPixels>
<maxLodPixels>-1</maxLodPixels>
</Lod>
</Region>
<Link>
<href>../../22/975833/2462767.kml</href>
<viewRefreshMode>onRegion</viewRefreshMode>
</Link>
</NetworkLink>

</Folder>

</Document>
</kml>
