<?xml version="1.0" encoding="utf-8"?>
<kml xmlns="http://www.opengis.net/kml/2.2">
<Document>
<name>21/487942/1231391.kml</name>
<description></description>
<Style><ListStyle id="hideChildren">
<listItemType>checkHideChildren</listItemType>
</ListStyle>
</Style>
<Folder>
<Region>
<LatLonAltBox>
<north>29.921613319695606</north>
<south>29.921464539184839</south>
<east>-96.239032745361328</east>
<west>-96.239204406738281</west>
</LatLonAltBox>
<Lod>
<minLodPixels>128</minLodPixels>
<maxLodPixels>-1</maxLodPixels>
</Lod>
</Region>
<GroundOverlay>
<drawOrder>42</drawOrder>
<Icon>
<href>../../21/487942/1231391.png</href>
</Icon>
<LatLonBox>
<north>29.921613319695606</north>
<south>29.921464539184839</south>
<east>-96.239032745361328</east>
<west>-96.239204406738281</west>
</LatLonBox>
</GroundOverlay>
<NetworkLink>
<name>22/975884/2462782.kml</name>
<Region>
<LatLonAltBox>
<north>29.921538929468021</north>
<south>29.921464539184839</south>
<east>-96.239118576049805</east>
<west>-96.239204406738281</west>
</LatLonAltBox>
<Lod>
<minLodPixels>128</minLodPixels>
<maxLodPixels>-1</maxLodPixels>
</Lod>
</Region>
<Link>
<href>../../22/975884/2462782.kml</href>
<viewRefreshMode>onRegion</viewRefreshMode>
</Link>
</NetworkLink>
<NetworkLink>
<name>22/975884/2462783.kml</name>
<Region>
<LatLonAltBox>
<north>29.921613319695606</north>
<south>29.921538929468021</south>
<east>-96.239118576049805</east>
<west>-96.239204406738281</west>
</LatLonAltBox>
<Lod>
<minLodPixels>128</minLodPixels>
<maxLodPixels>-1</maxLodPixels>
</Lod>
</Region>
<Link>
<href>../../22/975884/2462783.kml</href>
<viewRefreshMode>onRegion</viewRefreshMode>
</Link>
</NetworkLink>

</Folder>

</Document>
</kml>
