<?xml version="1.0" encoding="utf-8"?>
<kml xmlns="http://www.opengis.net/kml/2.2">
<Document>
<name>21/487942/1231395.kml</name>
<description></description>
<Style><ListStyle id="hideChildren">
<listItemType>checkHideChildren</listItemType>
</ListStyle>
</Style>
<Folder>
<Region>
<LatLonAltBox>
<north>29.922208439515099</north>
<south>29.922059659893744</south>
<east>-96.239032745361328</east>
<west>-96.239204406738281</west>
</LatLonAltBox>
<Lod>
<minLodPixels>128</minLodPixels>
<maxLodPixels>-1</maxLodPixels>
</Lod>
</Region>
<GroundOverlay>
<drawOrder>42</drawOrder>
<Icon>
<href>../../21/487942/1231395.png</href>
</Icon>
<LatLonBox>
<north>29.922208439515099</north>
<south>29.922059659893744</south>
<east>-96.239032745361328</east>
<west>-96.239204406738281</west>
</LatLonBox>
</GroundOverlay>
<NetworkLink>
<name>22/975884/2462790.kml</name>
<Region>
<LatLonAltBox>
<north>29.922134049732232</north>
<south>29.922059659893744</south>
<east>-96.239118576049805</east>
<west>-96.239204406738281</west>
</LatLonAltBox>
<Lod>
<minLodPixels>128</minLodPixels>
<maxLodPixels>-1</maxLodPixels>
</Lod>
</Region>
<Link>
<href>../../22/975884/2462790.kml</href>
<viewRefreshMode>onRegion</viewRefreshMode>
</Link>
</NetworkLink>
<NetworkLink>
<name>22/975884/2462791.kml</name>
<Region>
<LatLonAltBox>
<north>29.922208439515099</north>
<south>29.922134049732232</south>
<east>-96.239118576049805</east>
<west>-96.239204406738281</west>
</LatLonAltBox>
<Lod>
<minLodPixels>128</minLodPixels>
<maxLodPixels>-1</maxLodPixels>
</Lod>
</Region>
<Link>
<href>../../22/975884/2462791.kml</href>
<viewRefreshMode>onRegion</viewRefreshMode>
</Link>
</NetworkLink>

</Folder>

</Document>
</kml>
