<?xml version="1.0" encoding="utf-8"?>
<kml xmlns="http://www.opengis.net/kml/2.2">
<Document>
<name>22/975813/2462729.kml</name>
<description></description>
<Style><ListStyle id="hideChildren">
<listItemType>checkHideChildren</listItemType>
</ListStyle>
</Style>
<Folder>
<Region>
<LatLonAltBox>
<north>29.917596167863042</north>
<south>29.917521774633904</south>
<east>-96.245212554931641</east>
<west>-96.245298385620117</west>
</LatLonAltBox>
<Lod>
<minLodPixels>128</minLodPixels>
<maxLodPixels>-1</maxLodPixels>
</Lod>
</Region>
<GroundOverlay>
<drawOrder>44</drawOrder>
<Icon>
<href>../../22/975813/2462729.png</href>
</Icon>
<LatLonBox>
<north>29.917596167863042</north>
<south>29.917521774633904</south>
<east>-96.245212554931641</east>
<west>-96.245298385620117</west>
</LatLonBox>
</GroundOverlay>

</Folder>

</Document>
</kml>
