<?xml version="1.0" encoding="utf-8"?>
<kml xmlns="http://www.opengis.net/kml/2.2">
<Document>
<name>22/975848/2462797.kml</name>
<description></description>
<Style><ListStyle id="hideChildren">
<listItemType>checkHideChildren</listItemType>
</ListStyle>
</Style>
<Folder>
<Region>
<LatLonAltBox>
<north>29.922654777045036</north>
<south>29.922580387595694</south>
<east>-96.242208480834961</east>
<west>-96.242294311523438</west>
</LatLonAltBox>
<Lod>
<minLodPixels>128</minLodPixels>
<maxLodPixels>-1</maxLodPixels>
</Lod>
</Region>
<GroundOverlay>
<drawOrder>44</drawOrder>
<Icon>
<href>../../22/975848/2462797.png</href>
</Icon>
<LatLonBox>
<north>29.922654777045036</north>
<south>29.922580387595694</south>
<east>-96.242208480834961</east>
<west>-96.242294311523438</west>
</LatLonBox>
</GroundOverlay>

</Folder>

</Document>
</kml>
