<?xml version="1.0" encoding="utf-8"?>
<kml xmlns="http://www.opengis.net/kml/2.2">
<Document>
<name>22/975875/2462790.kml</name>
<description></description>
<Style><ListStyle id="hideChildren">
<listItemType>checkHideChildren</listItemType>
</ListStyle>
</Style>
<Folder>
<Region>
<LatLonAltBox>
<north>29.922134049732232</north>
<south>29.922059659893744</south>
<east>-96.239891052246094</east>
<west>-96.239976882934570</west>
</LatLonAltBox>
<Lod>
<minLodPixels>128</minLodPixels>
<maxLodPixels>-1</maxLodPixels>
</Lod>
</Region>
<GroundOverlay>
<drawOrder>44</drawOrder>
<Icon>
<href>../../22/975875/2462790.png</href>
</Icon>
<LatLonBox>
<north>29.922134049732232</north>
<south>29.922059659893744</south>
<east>-96.239891052246094</east>
<west>-96.239976882934570</west>
</LatLonBox>
</GroundOverlay>

</Folder>

</Document>
</kml>
