<?xml version="1.0" encoding="utf-8"?>
<kml xmlns="http://www.opengis.net/kml/2.2">
<Document>
<name>21/487915/1231380.kml</name>
<description></description>
<Style><ListStyle id="hideChildren">
<listItemType>checkHideChildren</listItemType>
</ListStyle>
</Style>
<Folder>
<Region>
<LatLonAltBox>
<north>29.919976721848286</north>
<south>29.919827938891753</south>
<east>-96.243667602539062</east>
<west>-96.243839263916016</west>
</LatLonAltBox>
<Lod>
<minLodPixels>128</minLodPixels>
<maxLodPixels>-1</maxLodPixels>
</Lod>
</Region>
<GroundOverlay>
<drawOrder>42</drawOrder>
<Icon>
<href>../../21/487915/1231380.png</href>
</Icon>
<LatLonBox>
<north>29.919976721848286</north>
<south>29.919827938891753</south>
<east>-96.243667602539062</east>
<west>-96.243839263916016</west>
</LatLonBox>
</GroundOverlay>
<NetworkLink>
<name>22/975830/2462760.kml</name>
<Region>
<LatLonAltBox>
<north>29.919902330397818</north>
<south>29.919827938891753</south>
<east>-96.243753433227539</east>
<west>-96.243839263916016</west>
</LatLonAltBox>
<Lod>
<minLodPixels>128</minLodPixels>
<maxLodPixels>-1</maxLodPixels>
</Lod>
</Region>
<Link>
<href>../../22/975830/2462760.kml</href>
<viewRefreshMode>onRegion</viewRefreshMode>
</Link>
</NetworkLink>
<NetworkLink>
<name>22/975831/2462760.kml</name>
<Region>
<LatLonAltBox>
<north>29.919902330397818</north>
<south>29.919827938891753</south>
<east>-96.243667602539062</east>
<west>-96.243753433227539</west>
</LatLonAltBox>
<Lod>
<minLodPixels>128</minLodPixels>
<maxLodPixels>-1</maxLodPixels>
</Lod>
</Region>
<Link>
<href>../../22/975831/2462760.kml</href>
<viewRefreshMode>onRegion</viewRefreshMode>
</Link>
</NetworkLink>
<NetworkLink>
<name>22/975830/2462761.kml</name>
<Region>
<LatLonAltBox>
<north>29.919976721848286</north>
<south>29.919902330397818</south>
<east>-96.243753433227539</east>
<west>-96.243839263916016</west>
</LatLonAltBox>
<Lod>
<minLodPixels>128</minLodPixels>
<maxLodPixels>-1</maxLodPixels>
</Lod>
</Region>
<Link>
<href>../../22/975830/2462761.kml</href>
<viewRefreshMode>onRegion</viewRefreshMode>
</Link>
</NetworkLink>
<NetworkLink>
<name>22/975831/2462761.kml</name>
<Region>
<LatLonAltBox>
<north>29.919976721848286</north>
<south>29.919902330397818</south>
<east>-96.243667602539062</east>
<west>-96.243753433227539</west>
</LatLonAltBox>
<Lod>
<minLodPixels>128</minLodPixels>
<maxLodPixels>-1</maxLodPixels>
</Lod>
</Region>
<Link>
<href>../../22/975831/2462761.kml</href>
<viewRefreshMode>onRegion</viewRefreshMode>
</Link>
</NetworkLink>

</Folder>

</Document>
</kml>
