<?xml version="1.0" encoding="utf-8"?>
<kml xmlns="http://www.opengis.net/kml/2.2">
<Document>
<name>22/975827/2462726.kml</name>
<description></description>
<Style><ListStyle id="hideChildren">
<listItemType>checkHideChildren</listItemType>
</ListStyle>
</Style>
<Folder>
<Region>
<LatLonAltBox>
<north>29.917372988008815</north>
<south>29.917298594612891</south>
<east>-96.244010925292969</east>
<west>-96.244096755981445</west>
</LatLonAltBox>
<Lod>
<minLodPixels>128</minLodPixels>
<maxLodPixels>-1</maxLodPixels>
</Lod>
</Region>
<GroundOverlay>
<drawOrder>44</drawOrder>
<Icon>
<href>../../22/975827/2462726.png</href>
</Icon>
<LatLonBox>
<north>29.917372988008815</north>
<south>29.917298594612891</south>
<east>-96.244010925292969</east>
<west>-96.244096755981445</west>
</LatLonBox>
</GroundOverlay>

</Folder>

</Document>
</kml>
