<?xml version="1.0" encoding="utf-8"?>
<kml xmlns="http://www.opengis.net/kml/2.2">
<Document>
<name>18/60988/153920.kml</name>
<description></description>
<Style><ListStyle id="hideChildren">
<listItemType>checkHideChildren</listItemType>
</ListStyle>
</Style>
<Folder>
<Region>
<LatLonAltBox>
<north>29.918042526070831</north>
<south>29.916852233070173</south>
<east>-96.244354248046875</east>
<west>-96.245727539062500</west>
</LatLonAltBox>
<Lod>
<minLodPixels>128</minLodPixels>
<maxLodPixels>-1</maxLodPixels>
</Lod>
</Region>
<GroundOverlay>
<drawOrder>36</drawOrder>
<Icon>
<href>../../18/60988/153920.png</href>
</Icon>
<LatLonBox>
<north>29.918042526070831</north>
<south>29.916852233070173</south>
<east>-96.244354248046875</east>
<west>-96.245727539062500</west>
</LatLonBox>
</GroundOverlay>
<NetworkLink>
<name>19/121976/307840.kml</name>
<Region>
<LatLonAltBox>
<north>29.917447381349145</north>
<south>29.916852233070173</south>
<east>-96.245040893554688</east>
<west>-96.245727539062500</west>
</LatLonAltBox>
<Lod>
<minLodPixels>128</minLodPixels>
<maxLodPixels>-1</maxLodPixels>
</Lod>
</Region>
<Link>
<href>../../19/121976/307840.kml</href>
<viewRefreshMode>onRegion</viewRefreshMode>
</Link>
</NetworkLink>
<NetworkLink>
<name>19/121977/307840.kml</name>
<Region>
<LatLonAltBox>
<north>29.917447381349145</north>
<south>29.916852233070173</south>
<east>-96.244354248046875</east>
<west>-96.245040893554688</west>
</LatLonAltBox>
<Lod>
<minLodPixels>128</minLodPixels>
<maxLodPixels>-1</maxLodPixels>
</Lod>
</Region>
<Link>
<href>../../19/121977/307840.kml</href>
<viewRefreshMode>onRegion</viewRefreshMode>
</Link>
</NetworkLink>
<NetworkLink>
<name>19/121976/307841.kml</name>
<Region>
<LatLonAltBox>
<north>29.918042526070831</north>
<south>29.917447381349145</south>
<east>-96.245040893554688</east>
<west>-96.245727539062500</west>
</LatLonAltBox>
<Lod>
<minLodPixels>128</minLodPixels>
<maxLodPixels>-1</maxLodPixels>
</Lod>
</Region>
<Link>
<href>../../19/121976/307841.kml</href>
<viewRefreshMode>onRegion</viewRefreshMode>
</Link>
</NetworkLink>
<NetworkLink>
<name>19/121977/307841.kml</name>
<Region>
<LatLonAltBox>
<north>29.918042526070831</north>
<south>29.917447381349145</south>
<east>-96.244354248046875</east>
<west>-96.245040893554688</west>
</LatLonAltBox>
<Lod>
<minLodPixels>128</minLodPixels>
<maxLodPixels>-1</maxLodPixels>
</Lod>
</Region>
<Link>
<href>../../19/121977/307841.kml</href>
<viewRefreshMode>onRegion</viewRefreshMode>
</Link>
</NetworkLink>

</Folder>

</Document>
</kml>
