<?xml version="1.0" encoding="utf-8"?>
<kml xmlns="http://www.opengis.net/kml/2.2">
<Document>
<name>21/487931/1231385.kml</name>
<description></description>
<Style><ListStyle id="hideChildren">
<listItemType>checkHideChildren</listItemType>
</ListStyle>
</Style>
<Folder>
<Region>
<LatLonAltBox>
<north>29.920720633295858</north>
<south>29.920571851451044</south>
<east>-96.240921020507812</east>
<west>-96.241092681884766</west>
</LatLonAltBox>
<Lod>
<minLodPixels>128</minLodPixels>
<maxLodPixels>-1</maxLodPixels>
</Lod>
</Region>
<GroundOverlay>
<drawOrder>42</drawOrder>
<Icon>
<href>../../21/487931/1231385.png</href>
</Icon>
<LatLonBox>
<north>29.920720633295858</north>
<south>29.920571851451044</south>
<east>-96.240921020507812</east>
<west>-96.241092681884766</west>
</LatLonBox>
</GroundOverlay>
<NetworkLink>
<name>22/975862/2462770.kml</name>
<Region>
<LatLonAltBox>
<north>29.920646242401247</north>
<south>29.920571851451044</south>
<east>-96.241006851196289</east>
<west>-96.241092681884766</west>
</LatLonAltBox>
<Lod>
<minLodPixels>128</minLodPixels>
<maxLodPixels>-1</maxLodPixels>
</Lod>
</Region>
<Link>
<href>../../22/975862/2462770.kml</href>
<viewRefreshMode>onRegion</viewRefreshMode>
</Link>
</NetworkLink>
<NetworkLink>
<name>22/975863/2462770.kml</name>
<Region>
<LatLonAltBox>
<north>29.920646242401247</north>
<south>29.920571851451044</south>
<east>-96.240921020507812</east>
<west>-96.241006851196289</west>
</LatLonAltBox>
<Lod>
<minLodPixels>128</minLodPixels>
<maxLodPixels>-1</maxLodPixels>
</Lod>
</Region>
<Link>
<href>../../22/975863/2462770.kml</href>
<viewRefreshMode>onRegion</viewRefreshMode>
</Link>
</NetworkLink>
<NetworkLink>
<name>22/975862/2462771.kml</name>
<Region>
<LatLonAltBox>
<north>29.920720633295858</north>
<south>29.920646242401247</south>
<east>-96.241006851196289</east>
<west>-96.241092681884766</west>
</LatLonAltBox>
<Lod>
<minLodPixels>128</minLodPixels>
<maxLodPixels>-1</maxLodPixels>
</Lod>
</Region>
<Link>
<href>../../22/975862/2462771.kml</href>
<viewRefreshMode>onRegion</viewRefreshMode>
</Link>
</NetworkLink>
<NetworkLink>
<name>22/975863/2462771.kml</name>
<Region>
<LatLonAltBox>
<north>29.920720633295858</north>
<south>29.920646242401247</south>
<east>-96.240921020507812</east>
<west>-96.241006851196289</west>
</LatLonAltBox>
<Lod>
<minLodPixels>128</minLodPixels>
<maxLodPixels>-1</maxLodPixels>
</Lod>
</Region>
<Link>
<href>../../22/975863/2462771.kml</href>
<viewRefreshMode>onRegion</viewRefreshMode>
</Link>
</NetworkLink>

</Folder>

</Document>
</kml>
