<?xml version="1.0" encoding="utf-8"?>
<kml xmlns="http://www.opengis.net/kml/2.2">
<Document>
<name>21/487917/1231396.kml</name>
<description></description>
<Style><ListStyle id="hideChildren">
<listItemType>checkHideChildren</listItemType>
</ListStyle>
</Style>
<Folder>
<Region>
<LatLonAltBox>
<north>29.922357218914122</north>
<south>29.922208439515099</south>
<east>-96.243324279785156</east>
<west>-96.243495941162109</west>
</LatLonAltBox>
<Lod>
<minLodPixels>128</minLodPixels>
<maxLodPixels>-1</maxLodPixels>
</Lod>
</Region>
<GroundOverlay>
<drawOrder>42</drawOrder>
<Icon>
<href>../../21/487917/1231396.png</href>
</Icon>
<LatLonBox>
<north>29.922357218914122</north>
<south>29.922208439515099</south>
<east>-96.243324279785156</east>
<west>-96.243495941162109</west>
</LatLonBox>
</GroundOverlay>
<NetworkLink>
<name>22/975834/2462792.kml</name>
<Region>
<LatLonAltBox>
<north>29.922282829242395</north>
<south>29.922208439515099</south>
<east>-96.243410110473633</east>
<west>-96.243495941162109</west>
</LatLonAltBox>
<Lod>
<minLodPixels>128</minLodPixels>
<maxLodPixels>-1</maxLodPixels>
</Lod>
</Region>
<Link>
<href>../../22/975834/2462792.kml</href>
<viewRefreshMode>onRegion</viewRefreshMode>
</Link>
</NetworkLink>
<NetworkLink>
<name>22/975835/2462792.kml</name>
<Region>
<LatLonAltBox>
<north>29.922282829242395</north>
<south>29.922208439515099</south>
<east>-96.243324279785156</east>
<west>-96.243410110473633</west>
</LatLonAltBox>
<Lod>
<minLodPixels>128</minLodPixels>
<maxLodPixels>-1</maxLodPixels>
</Lod>
</Region>
<Link>
<href>../../22/975835/2462792.kml</href>
<viewRefreshMode>onRegion</viewRefreshMode>
</Link>
</NetworkLink>
<NetworkLink>
<name>22/975834/2462793.kml</name>
<Region>
<LatLonAltBox>
<north>29.922357218914122</north>
<south>29.922282829242395</south>
<east>-96.243410110473633</east>
<west>-96.243495941162109</west>
</LatLonAltBox>
<Lod>
<minLodPixels>128</minLodPixels>
<maxLodPixels>-1</maxLodPixels>
</Lod>
</Region>
<Link>
<href>../../22/975834/2462793.kml</href>
<viewRefreshMode>onRegion</viewRefreshMode>
</Link>
</NetworkLink>
<NetworkLink>
<name>22/975835/2462793.kml</name>
<Region>
<LatLonAltBox>
<north>29.922357218914122</north>
<south>29.922282829242395</south>
<east>-96.243324279785156</east>
<west>-96.243410110473633</west>
</LatLonAltBox>
<Lod>
<minLodPixels>128</minLodPixels>
<maxLodPixels>-1</maxLodPixels>
</Lod>
</Region>
<Link>
<href>../../22/975835/2462793.kml</href>
<viewRefreshMode>onRegion</viewRefreshMode>
</Link>
</NetworkLink>

</Folder>

</Document>
</kml>
