<?xml version="1.0" encoding="utf-8"?>
<kml xmlns="http://www.opengis.net/kml/2.2">
<Document>
<name>22/975860/2462782.kml</name>
<description></description>
<Style><ListStyle id="hideChildren">
<listItemType>checkHideChildren</listItemType>
</ListStyle>
</Style>
<Folder>
<Region>
<LatLonAltBox>
<north>29.921538929468021</north>
<south>29.921464539184839</south>
<east>-96.241178512573242</east>
<west>-96.241264343261719</west>
</LatLonAltBox>
<Lod>
<minLodPixels>128</minLodPixels>
<maxLodPixels>-1</maxLodPixels>
</Lod>
</Region>
<GroundOverlay>
<drawOrder>44</drawOrder>
<Icon>
<href>../../22/975860/2462782.png</href>
</Icon>
<LatLonBox>
<north>29.921538929468021</north>
<south>29.921464539184839</south>
<east>-96.241178512573242</east>
<west>-96.241264343261719</west>
</LatLonBox>
</GroundOverlay>

</Folder>

</Document>
</kml>
