<?xml version="1.0" encoding="utf-8"?>
<kml xmlns="http://www.opengis.net/kml/2.2">
<Document>
<name>20/243963/615684.kml</name>
<description></description>
<Style><ListStyle id="hideChildren">
<listItemType>checkHideChildren</listItemType>
</ListStyle>
</Style>
<Folder>
<Region>
<LatLonAltBox>
<north>29.918340097097651</north>
<south>29.918042526070831</south>
<east>-96.241607666015625</east>
<west>-96.241950988769531</west>
</LatLonAltBox>
<Lod>
<minLodPixels>128</minLodPixels>
<maxLodPixels>-1</maxLodPixels>
</Lod>
</Region>
<GroundOverlay>
<drawOrder>40</drawOrder>
<Icon>
<href>../../20/243963/615684.png</href>
</Icon>
<LatLonBox>
<north>29.918340097097651</north>
<south>29.918042526070831</south>
<east>-96.241607666015625</east>
<west>-96.241950988769531</west>
</LatLonBox>
</GroundOverlay>
<NetworkLink>
<name>21/487926/1231368.kml</name>
<Region>
<LatLonAltBox>
<north>29.918191311695395</north>
<south>29.918042526070831</south>
<east>-96.241779327392578</east>
<west>-96.241950988769531</west>
</LatLonAltBox>
<Lod>
<minLodPixels>128</minLodPixels>
<maxLodPixels>-1</maxLodPixels>
</Lod>
</Region>
<Link>
<href>../../21/487926/1231368.kml</href>
<viewRefreshMode>onRegion</viewRefreshMode>
</Link>
</NetworkLink>
<NetworkLink>
<name>21/487927/1231368.kml</name>
<Region>
<LatLonAltBox>
<north>29.918191311695395</north>
<south>29.918042526070831</south>
<east>-96.241607666015625</east>
<west>-96.241779327392578</west>
</LatLonAltBox>
<Lod>
<minLodPixels>128</minLodPixels>
<maxLodPixels>-1</maxLodPixels>
</Lod>
</Region>
<Link>
<href>../../21/487927/1231368.kml</href>
<viewRefreshMode>onRegion</viewRefreshMode>
</Link>
</NetworkLink>
<NetworkLink>
<name>21/487926/1231369.kml</name>
<Region>
<LatLonAltBox>
<north>29.918340097097651</north>
<south>29.918191311695395</south>
<east>-96.241779327392578</east>
<west>-96.241950988769531</west>
</LatLonAltBox>
<Lod>
<minLodPixels>128</minLodPixels>
<maxLodPixels>-1</maxLodPixels>
</Lod>
</Region>
<Link>
<href>../../21/487926/1231369.kml</href>
<viewRefreshMode>onRegion</viewRefreshMode>
</Link>
</NetworkLink>
<NetworkLink>
<name>21/487927/1231369.kml</name>
<Region>
<LatLonAltBox>
<north>29.918340097097651</north>
<south>29.918191311695395</south>
<east>-96.241607666015625</east>
<west>-96.241779327392578</west>
</LatLonAltBox>
<Lod>
<minLodPixels>128</minLodPixels>
<maxLodPixels>-1</maxLodPixels>
</Lod>
</Region>
<Link>
<href>../../21/487927/1231369.kml</href>
<viewRefreshMode>onRegion</viewRefreshMode>
</Link>
</NetworkLink>

</Folder>

</Document>
</kml>
