<?xml version="1.0" encoding="utf-8"?>
<kml xmlns="http://www.opengis.net/kml/2.2">
<Document>
<name>21/487939/1231389.kml</name>
<description></description>
<Style><ListStyle id="hideChildren">
<listItemType>checkHideChildren</listItemType>
</ListStyle>
</Style>
<Folder>
<Region>
<LatLonAltBox>
<north>29.921315758451740</north>
<south>29.921166977496284</south>
<east>-96.239547729492188</east>
<west>-96.239719390869141</west>
</LatLonAltBox>
<Lod>
<minLodPixels>128</minLodPixels>
<maxLodPixels>-1</maxLodPixels>
</Lod>
</Region>
<GroundOverlay>
<drawOrder>42</drawOrder>
<Icon>
<href>../../21/487939/1231389.png</href>
</Icon>
<LatLonBox>
<north>29.921315758451740</north>
<south>29.921166977496284</south>
<east>-96.239547729492188</east>
<west>-96.239719390869141</west>
</LatLonBox>
</GroundOverlay>
<NetworkLink>
<name>22/975878/2462778.kml</name>
<Region>
<LatLonAltBox>
<north>29.921241368001798</north>
<south>29.921166977496284</south>
<east>-96.239633560180664</east>
<west>-96.239719390869141</west>
</LatLonAltBox>
<Lod>
<minLodPixels>128</minLodPixels>
<maxLodPixels>-1</maxLodPixels>
</Lod>
</Region>
<Link>
<href>../../22/975878/2462778.kml</href>
<viewRefreshMode>onRegion</viewRefreshMode>
</Link>
</NetworkLink>
<NetworkLink>
<name>22/975879/2462778.kml</name>
<Region>
<LatLonAltBox>
<north>29.921241368001798</north>
<south>29.921166977496284</south>
<east>-96.239547729492188</east>
<west>-96.239633560180664</west>
</LatLonAltBox>
<Lod>
<minLodPixels>128</minLodPixels>
<maxLodPixels>-1</maxLodPixels>
</Lod>
</Region>
<Link>
<href>../../22/975879/2462778.kml</href>
<viewRefreshMode>onRegion</viewRefreshMode>
</Link>
</NetworkLink>
<NetworkLink>
<name>22/975878/2462779.kml</name>
<Region>
<LatLonAltBox>
<north>29.921315758451740</north>
<south>29.921241368001798</south>
<east>-96.239633560180664</east>
<west>-96.239719390869141</west>
</LatLonAltBox>
<Lod>
<minLodPixels>128</minLodPixels>
<maxLodPixels>-1</maxLodPixels>
</Lod>
</Region>
<Link>
<href>../../22/975878/2462779.kml</href>
<viewRefreshMode>onRegion</viewRefreshMode>
</Link>
</NetworkLink>
<NetworkLink>
<name>22/975879/2462779.kml</name>
<Region>
<LatLonAltBox>
<north>29.921315758451740</north>
<south>29.921241368001798</south>
<east>-96.239547729492188</east>
<west>-96.239633560180664</west>
</LatLonAltBox>
<Lod>
<minLodPixels>128</minLodPixels>
<maxLodPixels>-1</maxLodPixels>
</Lod>
</Region>
<Link>
<href>../../22/975879/2462779.kml</href>
<viewRefreshMode>onRegion</viewRefreshMode>
</Link>
</NetworkLink>

</Folder>

</Document>
</kml>
