<?xml version="1.0" encoding="utf-8"?>
<kml xmlns="http://www.opengis.net/kml/2.2">
<Document>
<name>21/487911/1231377.kml</name>
<description></description>
<Style><ListStyle id="hideChildren">
<listItemType>checkHideChildren</listItemType>
</ListStyle>
</Style>
<Folder>
<Region>
<LatLonAltBox>
<north>29.919530372311630</north>
<south>29.919381588688044</south>
<east>-96.244354248046875</east>
<west>-96.244525909423828</west>
</LatLonAltBox>
<Lod>
<minLodPixels>128</minLodPixels>
<maxLodPixels>-1</maxLodPixels>
</Lod>
</Region>
<GroundOverlay>
<drawOrder>42</drawOrder>
<Icon>
<href>../../21/487911/1231377.png</href>
</Icon>
<LatLonBox>
<north>29.919530372311630</north>
<south>29.919381588688044</south>
<east>-96.244354248046875</east>
<west>-96.244525909423828</west>
</LatLonBox>
</GroundOverlay>
<NetworkLink>
<name>22/975822/2462754.kml</name>
<Region>
<LatLonAltBox>
<north>29.919455980527633</north>
<south>29.919381588688044</south>
<east>-96.244440078735352</east>
<west>-96.244525909423828</west>
</LatLonAltBox>
<Lod>
<minLodPixels>128</minLodPixels>
<maxLodPixels>-1</maxLodPixels>
</Lod>
</Region>
<Link>
<href>../../22/975822/2462754.kml</href>
<viewRefreshMode>onRegion</viewRefreshMode>
</Link>
</NetworkLink>
<NetworkLink>
<name>22/975823/2462754.kml</name>
<Region>
<LatLonAltBox>
<north>29.919455980527633</north>
<south>29.919381588688044</south>
<east>-96.244354248046875</east>
<west>-96.244440078735352</west>
</LatLonAltBox>
<Lod>
<minLodPixels>128</minLodPixels>
<maxLodPixels>-1</maxLodPixels>
</Lod>
</Region>
<Link>
<href>../../22/975823/2462754.kml</href>
<viewRefreshMode>onRegion</viewRefreshMode>
</Link>
</NetworkLink>
<NetworkLink>
<name>22/975822/2462755.kml</name>
<Region>
<LatLonAltBox>
<north>29.919530372311630</north>
<south>29.919455980527633</south>
<east>-96.244440078735352</east>
<west>-96.244525909423828</west>
</LatLonAltBox>
<Lod>
<minLodPixels>128</minLodPixels>
<maxLodPixels>-1</maxLodPixels>
</Lod>
</Region>
<Link>
<href>../../22/975822/2462755.kml</href>
<viewRefreshMode>onRegion</viewRefreshMode>
</Link>
</NetworkLink>
<NetworkLink>
<name>22/975823/2462755.kml</name>
<Region>
<LatLonAltBox>
<north>29.919530372311630</north>
<south>29.919455980527633</south>
<east>-96.244354248046875</east>
<west>-96.244440078735352</west>
</LatLonAltBox>
<Lod>
<minLodPixels>128</minLodPixels>
<maxLodPixels>-1</maxLodPixels>
</Lod>
</Region>
<Link>
<href>../../22/975823/2462755.kml</href>
<viewRefreshMode>onRegion</viewRefreshMode>
</Link>
</NetworkLink>

</Folder>

</Document>
</kml>
