<?xml version="1.0" encoding="utf-8"?>
<kml xmlns="http://www.opengis.net/kml/2.2">
<Document>
<name>22/975839/2462746.kml</name>
<description></description>
<Style><ListStyle id="hideChildren">
<listItemType>checkHideChildren</listItemType>
</ListStyle>
</Style>
<Folder>
<Region>
<LatLonAltBox>
<north>29.918860844254670</north>
<south>29.918786451970412</south>
<east>-96.242980957031250</east>
<west>-96.243066787719727</west>
</LatLonAltBox>
<Lod>
<minLodPixels>128</minLodPixels>
<maxLodPixels>-1</maxLodPixels>
</Lod>
</Region>
<GroundOverlay>
<drawOrder>44</drawOrder>
<Icon>
<href>../../22/975839/2462746.png</href>
</Icon>
<LatLonBox>
<north>29.918860844254670</north>
<south>29.918786451970412</south>
<east>-96.242980957031250</east>
<west>-96.243066787719727</west>
</LatLonBox>
</GroundOverlay>

</Folder>

</Document>
</kml>
