<?xml version="1.0" encoding="utf-8"?>
<kml xmlns="http://www.opengis.net/kml/2.2">
<Document>
<name>20/243957/615687.kml</name>
<description></description>
<Style><ListStyle id="hideChildren">
<listItemType>checkHideChildren</listItemType>
</ListStyle>
</Style>
<Folder>
<Region>
<LatLonAltBox>
<north>29.919232804842174</north>
<south>29.918935236483332</south>
<east>-96.243667602539062</east>
<west>-96.244010925292969</west>
</LatLonAltBox>
<Lod>
<minLodPixels>128</minLodPixels>
<maxLodPixels>-1</maxLodPixels>
</Lod>
</Region>
<GroundOverlay>
<drawOrder>40</drawOrder>
<Icon>
<href>../../20/243957/615687.png</href>
</Icon>
<LatLonBox>
<north>29.919232804842174</north>
<south>29.918935236483332</south>
<east>-96.243667602539062</east>
<west>-96.244010925292969</west>
</LatLonBox>
</GroundOverlay>
<NetworkLink>
<name>21/487914/1231374.kml</name>
<Region>
<LatLonAltBox>
<north>29.919084020773919</north>
<south>29.918935236483332</south>
<east>-96.243839263916016</east>
<west>-96.244010925292969</west>
</LatLonAltBox>
<Lod>
<minLodPixels>128</minLodPixels>
<maxLodPixels>-1</maxLodPixels>
</Lod>
</Region>
<Link>
<href>../../21/487914/1231374.kml</href>
<viewRefreshMode>onRegion</viewRefreshMode>
</Link>
</NetworkLink>
<NetworkLink>
<name>21/487915/1231374.kml</name>
<Region>
<LatLonAltBox>
<north>29.919084020773919</north>
<south>29.918935236483332</south>
<east>-96.243667602539062</east>
<west>-96.243839263916016</west>
</LatLonAltBox>
<Lod>
<minLodPixels>128</minLodPixels>
<maxLodPixels>-1</maxLodPixels>
</Lod>
</Region>
<Link>
<href>../../21/487915/1231374.kml</href>
<viewRefreshMode>onRegion</viewRefreshMode>
</Link>
</NetworkLink>
<NetworkLink>
<name>21/487914/1231375.kml</name>
<Region>
<LatLonAltBox>
<north>29.919232804842174</north>
<south>29.919084020773919</south>
<east>-96.243839263916016</east>
<west>-96.244010925292969</west>
</LatLonAltBox>
<Lod>
<minLodPixels>128</minLodPixels>
<maxLodPixels>-1</maxLodPixels>
</Lod>
</Region>
<Link>
<href>../../21/487914/1231375.kml</href>
<viewRefreshMode>onRegion</viewRefreshMode>
</Link>
</NetworkLink>
<NetworkLink>
<name>21/487915/1231375.kml</name>
<Region>
<LatLonAltBox>
<north>29.919232804842174</north>
<south>29.919084020773919</south>
<east>-96.243667602539062</east>
<west>-96.243839263916016</west>
</LatLonAltBox>
<Lod>
<minLodPixels>128</minLodPixels>
<maxLodPixels>-1</maxLodPixels>
</Lod>
</Region>
<Link>
<href>../../21/487915/1231375.kml</href>
<viewRefreshMode>onRegion</viewRefreshMode>
</Link>
</NetworkLink>

</Folder>

</Document>
</kml>
