<?xml version="1.0" encoding="utf-8"?>
<kml xmlns="http://www.opengis.net/kml/2.2">
<Document>
<name>21/487922/1231399.kml</name>
<description></description>
<Style><ListStyle id="hideChildren">
<listItemType>checkHideChildren</listItemType>
</ListStyle>
</Style>
<Folder>
<Region>
<LatLonAltBox>
<north>29.922803555776980</north>
<south>29.922654777045036</south>
<east>-96.242465972900391</east>
<west>-96.242637634277344</west>
</LatLonAltBox>
<Lod>
<minLodPixels>128</minLodPixels>
<maxLodPixels>-1</maxLodPixels>
</Lod>
</Region>
<GroundOverlay>
<drawOrder>42</drawOrder>
<Icon>
<href>../../21/487922/1231399.png</href>
</Icon>
<LatLonBox>
<north>29.922803555776980</north>
<south>29.922654777045036</south>
<east>-96.242465972900391</east>
<west>-96.242637634277344</west>
</LatLonBox>
</GroundOverlay>
<NetworkLink>
<name>22/975844/2462798.kml</name>
<Region>
<LatLonAltBox>
<north>29.922729166438806</north>
<south>29.922654777045036</south>
<east>-96.242551803588867</east>
<west>-96.242637634277344</west>
</LatLonAltBox>
<Lod>
<minLodPixels>128</minLodPixels>
<maxLodPixels>-1</maxLodPixels>
</Lod>
</Region>
<Link>
<href>../../22/975844/2462798.kml</href>
<viewRefreshMode>onRegion</viewRefreshMode>
</Link>
</NetworkLink>
<NetworkLink>
<name>22/975845/2462798.kml</name>
<Region>
<LatLonAltBox>
<north>29.922729166438806</north>
<south>29.922654777045036</south>
<east>-96.242465972900391</east>
<west>-96.242551803588867</west>
</LatLonAltBox>
<Lod>
<minLodPixels>128</minLodPixels>
<maxLodPixels>-1</maxLodPixels>
</Lod>
</Region>
<Link>
<href>../../22/975845/2462798.kml</href>
<viewRefreshMode>onRegion</viewRefreshMode>
</Link>
</NetworkLink>

</Folder>

</Document>
</kml>
