<?xml version="1.0" encoding="utf-8"?>
<kml xmlns="http://www.opengis.net/kml/2.2">
<Document>
<name>21/487938/1231382.kml</name>
<description></description>
<Style><ListStyle id="hideChildren">
<listItemType>checkHideChildren</listItemType>
</ListStyle>
</Style>
<Folder>
<Region>
<LatLonAltBox>
<north>29.920274287094358</north>
<south>29.920125504582490</south>
<east>-96.239719390869141</east>
<west>-96.239891052246094</west>
</LatLonAltBox>
<Lod>
<minLodPixels>128</minLodPixels>
<maxLodPixels>-1</maxLodPixels>
</Lod>
</Region>
<GroundOverlay>
<drawOrder>42</drawOrder>
<Icon>
<href>../../21/487938/1231382.png</href>
</Icon>
<LatLonBox>
<north>29.920274287094358</north>
<south>29.920125504582490</south>
<east>-96.239719390869141</east>
<west>-96.239891052246094</west>
</LatLonBox>
</GroundOverlay>
<NetworkLink>
<name>22/975876/2462764.kml</name>
<Region>
<LatLonAltBox>
<north>29.920199895866222</north>
<south>29.920125504582490</south>
<east>-96.239805221557617</east>
<west>-96.239891052246094</west>
</LatLonAltBox>
<Lod>
<minLodPixels>128</minLodPixels>
<maxLodPixels>-1</maxLodPixels>
</Lod>
</Region>
<Link>
<href>../../22/975876/2462764.kml</href>
<viewRefreshMode>onRegion</viewRefreshMode>
</Link>
</NetworkLink>
<NetworkLink>
<name>22/975877/2462764.kml</name>
<Region>
<LatLonAltBox>
<north>29.920199895866222</north>
<south>29.920125504582490</south>
<east>-96.239719390869141</east>
<west>-96.239805221557617</west>
</LatLonAltBox>
<Lod>
<minLodPixels>128</minLodPixels>
<maxLodPixels>-1</maxLodPixels>
</Lod>
</Region>
<Link>
<href>../../22/975877/2462764.kml</href>
<viewRefreshMode>onRegion</viewRefreshMode>
</Link>
</NetworkLink>
<NetworkLink>
<name>22/975876/2462765.kml</name>
<Region>
<LatLonAltBox>
<north>29.920274287094358</north>
<south>29.920199895866222</south>
<east>-96.239805221557617</east>
<west>-96.239891052246094</west>
</LatLonAltBox>
<Lod>
<minLodPixels>128</minLodPixels>
<maxLodPixels>-1</maxLodPixels>
</Lod>
</Region>
<Link>
<href>../../22/975876/2462765.kml</href>
<viewRefreshMode>onRegion</viewRefreshMode>
</Link>
</NetworkLink>
<NetworkLink>
<name>22/975877/2462765.kml</name>
<Region>
<LatLonAltBox>
<north>29.920274287094358</north>
<south>29.920199895866222</south>
<east>-96.239719390869141</east>
<west>-96.239805221557617</west>
</LatLonAltBox>
<Lod>
<minLodPixels>128</minLodPixels>
<maxLodPixels>-1</maxLodPixels>
</Lod>
</Region>
<Link>
<href>../../22/975877/2462765.kml</href>
<viewRefreshMode>onRegion</viewRefreshMode>
</Link>
</NetworkLink>

</Folder>

</Document>
</kml>
