<?xml version="1.0" encoding="utf-8"?>
<kml xmlns="http://www.opengis.net/kml/2.2">
<Document>
<name>22/975847/2462777.kml</name>
<description></description>
<Style><ListStyle id="hideChildren">
<listItemType>checkHideChildren</listItemType>
</ListStyle>
</Style>
<Folder>
<Region>
<LatLonAltBox>
<north>29.921166977496284</north>
<south>29.921092586935199</south>
<east>-96.242294311523438</east>
<west>-96.242380142211914</west>
</LatLonAltBox>
<Lod>
<minLodPixels>128</minLodPixels>
<maxLodPixels>-1</maxLodPixels>
</Lod>
</Region>
<GroundOverlay>
<drawOrder>44</drawOrder>
<Icon>
<href>../../22/975847/2462777.png</href>
</Icon>
<LatLonBox>
<north>29.921166977496284</north>
<south>29.921092586935199</south>
<east>-96.242294311523438</east>
<west>-96.242380142211914</west>
</LatLonBox>
</GroundOverlay>

</Folder>

</Document>
</kml>
