<?xml version="1.0" encoding="utf-8"?>
<kml xmlns="http://www.opengis.net/kml/2.2">
<Document>
<name>21/487909/1231394.kml</name>
<description></description>
<Style><ListStyle id="hideChildren">
<listItemType>checkHideChildren</listItemType>
</ListStyle>
</Style>
<Folder>
<Region>
<LatLonAltBox>
<north>29.922059659893744</north>
<south>29.921910880050032</south>
<east>-96.244697570800781</east>
<west>-96.244869232177734</west>
</LatLonAltBox>
<Lod>
<minLodPixels>128</minLodPixels>
<maxLodPixels>-1</maxLodPixels>
</Lod>
</Region>
<GroundOverlay>
<drawOrder>42</drawOrder>
<Icon>
<href>../../21/487909/1231394.png</href>
</Icon>
<LatLonBox>
<north>29.922059659893744</north>
<south>29.921910880050032</south>
<east>-96.244697570800781</east>
<west>-96.244869232177734</west>
</LatLonBox>
</GroundOverlay>
<NetworkLink>
<name>22/975818/2462788.kml</name>
<Region>
<LatLonAltBox>
<north>29.921985269999688</north>
<south>29.921910880050032</south>
<east>-96.244783401489258</east>
<west>-96.244869232177734</west>
</LatLonAltBox>
<Lod>
<minLodPixels>128</minLodPixels>
<maxLodPixels>-1</maxLodPixels>
</Lod>
</Region>
<Link>
<href>../../22/975818/2462788.kml</href>
<viewRefreshMode>onRegion</viewRefreshMode>
</Link>
</NetworkLink>
<NetworkLink>
<name>22/975819/2462788.kml</name>
<Region>
<LatLonAltBox>
<north>29.921985269999688</north>
<south>29.921910880050032</south>
<east>-96.244697570800781</east>
<west>-96.244783401489258</west>
</LatLonAltBox>
<Lod>
<minLodPixels>128</minLodPixels>
<maxLodPixels>-1</maxLodPixels>
</Lod>
</Region>
<Link>
<href>../../22/975819/2462788.kml</href>
<viewRefreshMode>onRegion</viewRefreshMode>
</Link>
</NetworkLink>
<NetworkLink>
<name>22/975818/2462789.kml</name>
<Region>
<LatLonAltBox>
<north>29.922059659893744</north>
<south>29.921985269999688</south>
<east>-96.244783401489258</east>
<west>-96.244869232177734</west>
</LatLonAltBox>
<Lod>
<minLodPixels>128</minLodPixels>
<maxLodPixels>-1</maxLodPixels>
</Lod>
</Region>
<Link>
<href>../../22/975818/2462789.kml</href>
<viewRefreshMode>onRegion</viewRefreshMode>
</Link>
</NetworkLink>
<NetworkLink>
<name>22/975819/2462789.kml</name>
<Region>
<LatLonAltBox>
<north>29.922059659893744</north>
<south>29.921985269999688</south>
<east>-96.244697570800781</east>
<west>-96.244783401489258</west>
</LatLonAltBox>
<Lod>
<minLodPixels>128</minLodPixels>
<maxLodPixels>-1</maxLodPixels>
</Lod>
</Region>
<Link>
<href>../../22/975819/2462789.kml</href>
<viewRefreshMode>onRegion</viewRefreshMode>
</Link>
</NetworkLink>

</Folder>

</Document>
</kml>
