<?xml version="1.0" encoding="utf-8"?>
<kml xmlns="http://www.opengis.net/kml/2.2">
<Document>
<name>22/975833/2462741.kml</name>
<description></description>
<Style><ListStyle id="hideChildren">
<listItemType>checkHideChildren</listItemType>
</ListStyle>
</Style>
<Folder>
<Region>
<LatLonAltBox>
<north>29.918488882277597</north>
<south>29.918414489715410</south>
<east>-96.243495941162109</east>
<west>-96.243581771850586</west>
</LatLonAltBox>
<Lod>
<minLodPixels>128</minLodPixels>
<maxLodPixels>-1</maxLodPixels>
</Lod>
</Region>
<GroundOverlay>
<drawOrder>44</drawOrder>
<Icon>
<href>../../22/975833/2462741.png</href>
</Icon>
<LatLonBox>
<north>29.918488882277597</north>
<south>29.918414489715410</south>
<east>-96.243495941162109</east>
<west>-96.243581771850586</west>
</LatLonBox>
</GroundOverlay>

</Folder>

</Document>
</kml>
