<?xml version="1.0" encoding="utf-8"?>
<kml xmlns="http://www.opengis.net/kml/2.2">
<Document>
<name>22/975852/2462775.kml</name>
<description></description>
<Style><ListStyle id="hideChildren">
<listItemType>checkHideChildren</listItemType>
</ListStyle>
</Style>
<Folder>
<Region>
<LatLonAltBox>
<north>29.921018196318517</north>
<south>29.920943805646214</south>
<east>-96.241865158081055</east>
<west>-96.241950988769531</west>
</LatLonAltBox>
<Lod>
<minLodPixels>128</minLodPixels>
<maxLodPixels>-1</maxLodPixels>
</Lod>
</Region>
<GroundOverlay>
<drawOrder>44</drawOrder>
<Icon>
<href>../../22/975852/2462775.png</href>
</Icon>
<LatLonBox>
<north>29.921018196318517</north>
<south>29.920943805646214</south>
<east>-96.241865158081055</east>
<west>-96.241950988769531</west>
</LatLonBox>
</GroundOverlay>

</Folder>

</Document>
</kml>
